ISO-10303-21;
HEADER;
FILE_DESCRIPTION (( 'STEP AP214' ),
    '1' );
FILE_NAME ('Pinching motor shaft ALU.STEP',
    '2014-10-01T18:07:36',
    ( '' ),
    ( '' ),
    'SwSTEP 2.0',
    'SolidWorks 2013',
    '' );
FILE_SCHEMA (( 'AUTOMOTIVE_DESIGN' ));
ENDSEC;

DATA;
#1 = CARTESIAN_POINT ( 'NONE',  ( -0.1212112574229720100, 0.1768236810509919700, 0.2099459988825398400 ) ) ;
#2 = CARTESIAN_POINT ( 'NONE',  ( 0.4999999999999993300, 0.1250000000000000000, 0.1850393700787403300 ) ) ;
#3 = COLOUR_RGB ( '',0.7921568627450980000, 0.8196078431372548800, 0.9333333333333333500 ) ;
#4 = CARTESIAN_POINT ( 'NONE',  ( -0.1257791521070549500, 0.06346870735608720100, 0.2287465019650026000 ) ) ;
#5 = PLANE ( 'NONE',  #96 ) ;
#6 =( NAMED_UNIT ( * ) SI_UNIT ( $, .STERADIAN. ) SOLID_ANGLE_UNIT ( ) );
#7 = COLOUR_RGB ( '',0.7921568627450980000, 0.8196078431372548800, 0.9333333333333333500 ) ;
#8 = ORIENTED_EDGE ( 'NONE', *, *, #234, .T. ) ;
#9 = EDGE_CURVE ( 'NONE', #117, #882, #145, .T. ) ;
#10 = SURFACE_STYLE_FILL_AREA ( #112 ) ;
#11 = LINE ( 'NONE', #862, #328 ) ;
#12 = EDGE_CURVE ( 'NONE', #216, #83, #82, .T. ) ;
#13 = PRESENTATION_STYLE_ASSIGNMENT (( #115 ) ) ;
#14 = EDGE_CURVE ( 'NONE', #706, #704, #419, .T. ) ;
#15 = VERTEX_POINT ( 'NONE', #123 ) ;
#16 = AXIS2_PLACEMENT_3D ( 'NONE', #332, #239, #136 ) ;
#17 = EDGE_CURVE ( 'NONE', #628, #133, #624, .T. ) ;
#18 = CYLINDRICAL_SURFACE ( 'NONE', #172, 0.08267716535433047900 ) ;
#19 =( NAMED_UNIT ( * ) SI_UNIT ( $, .STERADIAN. ) SOLID_ANGLE_UNIT ( ) );
#20 = PLANE ( 'NONE',  #437 ) ;
#21 = EDGE_CURVE ( 'NONE', #91, #539, #883, .T. ) ;
#22 = EDGE_LOOP ( 'NONE', ( #699, #732 ) ) ;
#23 = DIRECTION ( 'NONE',  ( 1.024442997624098700E-016, -1.000000000000000000, 0.0000000000000000000 ) ) ;
#24 = CYLINDRICAL_SURFACE ( 'NONE', #222, 0.1274999999999999200 ) ;
#25 = B_SPLINE_CURVE_WITH_KNOTS ( 'NONE', 3,
 ( #947, #847, #759, #662, #568, #470, #365, #274, #176, #70, #927, #828, #735, #646, #545, #443, #342, #255, #148, #50, #903, #801, #715, #625, #516, #421, #323, #224, #127, #29 ),
 .UNSPECIFIED., .F., .F.,
 ( 4, 2, 2, 2, 2, 2, 2, 2, 2, 2, 2, 2, 2, 2, 4 ),
 ( 0.005251829172957040600, 0.005579443845572276200, 0.005907058518187510900, 0.006234673190802746500, 0.006562287863417981200, 0.006889902536033215900, 0.007217517208648450600, 0.007872746553878921800, 0.008200361226494156500, 0.008527975899109391200, 0.009183205244339862400, 0.009510819916955098900, 0.009838434589570333600, 0.01016604926218556800, 0.01049366393480080300 ),
 .UNSPECIFIED. ) ;
#26 = AXIS2_PLACEMENT_3D ( 'NONE', #205, #104, #430 ) ;
#27 = CARTESIAN_POINT ( 'NONE',  ( -0.1211881457105800800, 0.1765233779525132200, 0.2897863213499881600 ) ) ;
#28 = EDGE_CURVE ( 'NONE', #882, #586, #395, .T. ) ;
#29 = CARTESIAN_POINT ( 'NONE',  ( 0.1097103758093691700, 0.1250000000000000000, 0.1850393700787404100 ) ) ;
#30 = LENGTH_MEASURE_WITH_UNIT ( LENGTH_MEASURE( 0.02539999999999999900 ), #560 );
#31 = DIRECTION ( 'NONE',  ( -0.0000000000000000000, -1.000000000000000000, -0.0000000000000000000 ) ) ;
#32 = CARTESIAN_POINT ( 'NONE',  ( 0.1265795446706161900, 0.1882018785400827700, 0.2672798384030829500 ) ) ;
#33 = AXIS2_PLACEMENT_3D ( 'NONE', #933, #836, #739 ) ;
#34 = EDGE_LOOP ( 'NONE', ( #637, #289 ) ) ;
#35 = DIRECTION ( 'NONE',  ( 1.821231995776175000E-016, -1.000000000000000000, 0.0000000000000000000 ) ) ;
#36 =( LENGTH_UNIT ( ) NAMED_UNIT ( * ) SI_UNIT ( $, .METRE. ) );
#37 = CARTESIAN_POINT ( 'NONE',  ( 0.4999999999999993300, 0.1250000000000000000, 0.2500000000000000000 ) ) ;
#38 = EDGE_LOOP ( 'NONE', ( #484, #681, #232, #270, #485, #417, #422, #815 ) ) ;
#39 = EDGE_LOOP ( 'NONE', ( #658, #924, #605, #379 ) ) ;
#40 = SURFACE_STYLE_FILL_AREA ( #139 ) ;
#41 = DIRECTION ( 'NONE',  ( 1.000000000000000000, 0.0000000000000000000, 0.0000000000000000000 ) ) ;
#42 = STYLED_ITEM ( 'NONE', ( #13 ), #169 ) ;
#43 = VECTOR ( 'NONE', #35, 39.37007874015748100 ) ;
#44 = CARTESIAN_POINT ( 'NONE',  ( -0.8000000000000007100, 0.3750000000000001100, 0.3326771653543305600 ) ) ;
#45 = ORIENTED_EDGE ( 'NONE', *, *, #676, .F. ) ;
#46 = CARTESIAN_POINT ( 'NONE',  ( 0.9999999999999996700, 0.3750000000000003900, 0.5000000000000000000 ) ) ;
#47 = CARTESIAN_POINT ( 'NONE',  ( -0.1097103758093702500, 0.1250000000000000000, 0.3149606299212595600 ) ) ;
#48 = AXIS2_PLACEMENT_3D ( 'NONE', #452, #352, #262 ) ;
#49 = CYLINDRICAL_SURFACE ( 'NONE', #26, 0.06496062992125958800 ) ;
#50 = CARTESIAN_POINT ( 'NONE',  ( 0.1234236147093487300, 0.06838358418768433800, 0.2170225022515312500 ) ) ;
#51 = SURFACE_SIDE_STYLE ('',( #150 ) ) ;
#52 = CARTESIAN_POINT ( 'NONE',  ( 0.1116784683281894000, 0.1462187138355222600, 0.1884563542385057400 ) ) ;
#53 = DIRECTION ( 'NONE',  ( -0.0000000000000000000, -0.0000000000000000000, -1.000000000000000000 ) ) ;
#54 = FILL_AREA_STYLE_COLOUR ( '', #810 ) ;
#55 =( GEOMETRIC_REPRESENTATION_CONTEXT ( 3 ) GLOBAL_UNCERTAINTY_ASSIGNED_CONTEXT ( ( #398 ) ) GLOBAL_UNIT_ASSIGNED_CONTEXT ( ( #616, #315, #19 ) ) REPRESENTATION_CONTEXT ( 'NONE', 'WORKASPACE' ) );
#56 = CARTESIAN_POINT ( 'NONE',  ( 0.1097103758093691500, 0.1250000000000000000, 0.3149606299212595600 ) ) ;
#57 =( LENGTH_UNIT ( ) NAMED_UNIT ( * ) SI_UNIT ( $, .METRE. ) );
#58 = CARTESIAN_POINT ( 'NONE',  ( 0.0000000000000000000, 0.0000000000000000000, 0.5000000000000000000 ) ) ;
#59 = ORIENTED_EDGE ( 'NONE', *, *, #547, .T. ) ;
#60 = VERTEX_POINT ( 'NONE', #98 ) ;
#61 = DIRECTION ( 'NONE',  ( -0.0000000000000000000, -1.000000000000000000, -0.0000000000000000000 ) ) ;
#62 = DIRECTION ( 'NONE',  ( 0.0000000000000000000, 1.000000000000000000, 0.0000000000000000000 ) ) ;
#63 = CARTESIAN_POINT ( 'NONE',  ( 0.4999999999999993300, 0.0000000000000000000, 0.0000000000000000000 ) ) ;
#64 = AXIS2_PLACEMENT_3D ( 'NONE', #317, #219, #121 ) ;
#65 = ORIENTED_EDGE ( 'NONE', *, *, #540, .T. ) ;
#66 = VECTOR ( 'NONE', #607, 39.37007874015748100 ) ;
#67 = ORIENTED_EDGE ( 'NONE', *, *, #468, .T. ) ;
#68 = CARTESIAN_POINT ( 'NONE',  ( -5.463695987328526400E-016, -1.865748365121865700E-032, 0.2500000000000000000 ) ) ;
#69 = CARTESIAN_POINT ( 'NONE',  ( -1.000000000000000400, 0.5000000000000001100, 0.5000000000000000000 ) ) ;
#70 = CARTESIAN_POINT ( 'NONE',  ( 0.1200733782963214600, 0.07612630957979374400, 0.2929954170814380600 ) ) ;
#71 = VERTEX_POINT ( 'NONE', #493 ) ;
#72 = STYLED_ITEM ( 'NONE', ( #802 ), #160 ) ;
#73 = CARTESIAN_POINT ( 'NONE',  ( -1.000000000000000200, 0.3750000000000001100, 0.0000000000000000000 ) ) ;
#74 = DIRECTION ( 'NONE',  ( 0.0000000000000000000, 0.0000000000000000000, -1.000000000000000000 ) ) ;
#75 = PLANE ( 'NONE',  #33 ) ;
#76 = LENGTH_MEASURE_WITH_UNIT ( LENGTH_MEASURE( 0.02539999999999999900 ), #57 );
#77 = COLOUR_RGB ( '',0.7921568627450980000, 0.8196078431372548800, 0.9333333333333333500 ) ;
#78 = CARTESIAN_POINT ( 'NONE',  ( -0.1200455194204557300, 0.07619451794526285700, 0.2930728266942931900 ) ) ;
#79 = FACE_OUTER_BOUND ( 'NONE', #502, .T. ) ;
#80 = DIRECTION ( 'NONE',  ( 1.000000000000000000, 0.0000000000000000000, 0.0000000000000000000 ) ) ;
#81 = DIRECTION ( 'NONE',  ( 0.0000000000000000000, 1.000000000000000000, 0.0000000000000000000 ) ) ;
#82 = CIRCLE ( 'NONE', #182, 0.1274999999999999500 ) ;
#83 = VERTEX_POINT ( 'NONE', #948 ) ;
#84 = EDGE_CURVE ( 'NONE', #71, #586, #850, .T. ) ;
#85 =( CONVERSION_BASED_UNIT ( 'INCH', #271 ) LENGTH_UNIT ( ) NAMED_UNIT ( #236 ) );
#86 = CARTESIAN_POINT ( 'NONE',  ( -5.463695987328526400E-016, 3.061616997868189400E-019, 0.2500000000000000000 ) ) ;
#87 = EDGE_CURVE ( 'NONE', #133, #216, #472, .T. ) ;
#88 = SURFACE_SIDE_STYLE ('',( #193 ) ) ;
#89 =( NAMED_UNIT ( * ) PLANE_ANGLE_UNIT ( ) SI_UNIT ( $, .RADIAN. ) );
#90 = EDGE_CURVE ( 'NONE', #704, #841, #181, .T. ) ;
#91 = VERTEX_POINT ( 'NONE', #830 ) ;
#92 = VECTOR ( 'NONE', #703, 39.37007874015748100 ) ;
#93 = CARTESIAN_POINT ( 'NONE',  ( 0.4999999999999993300, 0.1250000000000000000, 0.2500000000000000000 ) ) ;
#94 = CARTESIAN_POINT ( 'NONE',  ( 0.4999999999999993300, 0.0000000000000000000, 0.0000000000000000000 ) ) ;
#95 = DIRECTION ( 'NONE',  ( 1.000000000000000000, 0.0000000000000000000, 0.0000000000000000000 ) ) ;
#96 = AXIS2_PLACEMENT_3D ( 'NONE', #579, #479, #375 ) ;
#97 = ORIENTED_EDGE ( 'NONE', *, *, #173, .T. ) ;
#98 = CARTESIAN_POINT ( 'NONE',  ( 0.1097103758093691700, 0.1250000000000000000, 0.1850393700787404100 ) ) ;
#99 = UNCERTAINTY_MEASURE_WITH_UNIT (LENGTH_MEASURE( 1.000000000000000100E-005 ), #879, 'distance_accuracy_value', 'NONE');
#100 = EDGE_CURVE ( 'NONE', #15, #908, #571, .T. ) ;
#101 = CARTESIAN_POINT ( 'NONE',  ( -0.1234236147093498200, 0.1816164158123155800, 0.2170225022515311600 ) ) ;
#102 = DIRECTION ( 'NONE',  ( 1.000000000000000000, -2.731847993664261200E-016, 0.0000000000000000000 ) ) ;
#103 = AXIS2_PLACEMENT_3D ( 'NONE', #246, #140, #41 ) ;
#104 = DIRECTION ( 'NONE',  ( 1.000000000000000000, -0.0000000000000000000, -0.0000000000000000000 ) ) ;
#105 =( GEOMETRIC_REPRESENTATION_CONTEXT ( 3 ) GLOBAL_UNCERTAINTY_ASSIGNED_CONTEXT ( ( #544 ) ) GLOBAL_UNIT_ASSIGNED_CONTEXT ( ( #576, #280, #934 ) ) REPRESENTATION_CONTEXT ( 'NONE', 'WORKASPACE' ) );
#106 = ORIENTED_EDGE ( 'NONE', *, *, #831, .T. ) ;
#107 = CARTESIAN_POINT ( 'NONE',  ( -0.1234220724934528300, 0.06838792409809006700, 0.2170353650802293000 ) ) ;
#108 = CARTESIAN_POINT ( 'NONE',  ( 0.1097103758093691500, 0.1250000000000000000, 0.3149606299212595600 ) ) ;
#109 = VECTOR ( 'NONE', #447, 39.37007874015748100 ) ;
#110 = ORIENTED_EDGE ( 'NONE', *, *, #680, .T. ) ;
#111 = APPLICATION_CONTEXT ( 'automotive_design' ) ;
#112 = FILL_AREA_STYLE ('',( #212 ) ) ;
#113 = LINE ( 'NONE', #678, #351 ) ;
#114 =( NAMED_UNIT ( * ) SI_UNIT ( $, .STERADIAN. ) SOLID_ANGLE_UNIT ( ) );
#115 = SURFACE_STYLE_USAGE ( .BOTH. , #214 ) ;
#116 = ORIENTED_EDGE ( 'NONE', *, *, #12, .T. ) ;
#117 = VERTEX_POINT ( 'NONE', #445 ) ;
#118 =( CONVERSION_BASED_UNIT ( 'INCH', #593 ) LENGTH_UNIT ( ) NAMED_UNIT ( #253 ) );
#119 = CYLINDRICAL_SURFACE ( 'NONE', #943, 0.06496062992125958800 ) ;
#120 = STYLED_ITEM ( 'NONE', ( #677 ), #396 ) ;
#121 = DIRECTION ( 'NONE',  ( 1.000000000000000000, 1.024442997624098800E-016, 0.0000000000000000000 ) ) ;
#122 = ORIENTED_EDGE ( 'NONE', *, *, #814, .T. ) ;
#123 = CARTESIAN_POINT ( 'NONE',  ( 0.4999999999999993300, 0.0000000000000000000, 0.5000000000000000000 ) ) ;
#124 = VECTOR ( 'NONE', #31, 39.37007874015748100 ) ;
#125 = CARTESIAN_POINT ( 'NONE',  ( -0.1200733782963226100, 0.1738736904202062800, 0.2929954170814380600 ) ) ;
#126 = AXIS2_PLACEMENT_3D ( 'NONE', #513, #23, #868 ) ;
#127 = CARTESIAN_POINT ( 'NONE',  ( 0.1097103758093691500, 0.1206311231171945900, 0.1850393700787404100 ) ) ;
#128 =( GEOMETRIC_REPRESENTATION_CONTEXT ( 3 ) GLOBAL_UNCERTAINTY_ASSIGNED_CONTEXT ( ( #758 ) ) GLOBAL_UNIT_ASSIGNED_CONTEXT ( ( #226, #875, #598 ) ) REPRESENTATION_CONTEXT ( 'NONE', 'WORKASPACE' ) );
#129 = EDGE_LOOP ( 'NONE', ( #794, #727, #444, #463 ) ) ;
#130 = CARTESIAN_POINT ( 'NONE',  ( -5.463695987328526400E-016, -1.865748365121865700E-032, 0.1225000000000000800 ) ) ;
#131 = CARTESIAN_POINT ( 'NONE',  ( 0.1275029588147959800, 0.1899664372687271100, 0.2586233055612901500 ) ) ;
#132 = VECTOR ( 'NONE', #53, 39.37007874015748100 ) ;
#133 = VERTEX_POINT ( 'NONE', #548 ) ;
#134 = CARTESIAN_POINT ( 'NONE',  ( -0.5000000000000002200, 0.3750000000000001100, 0.0000000000000000000 ) ) ;
#135 =( NAMED_UNIT ( * ) SI_UNIT ( $, .STERADIAN. ) SOLID_ANGLE_UNIT ( ) );
#136 = DIRECTION ( 'NONE',  ( 0.0000000000000000000, 0.0000000000000000000, -1.000000000000000000 ) ) ;
#137 = ORIENTED_EDGE ( 'NONE', *, *, #100, .T. ) ;
#138 = ORIENTED_EDGE ( 'NONE', *, *, #324, .T. ) ;
#139 = FILL_AREA_STYLE ('',( #243 ) ) ;
#140 = DIRECTION ( 'NONE',  ( 0.0000000000000000000, 0.0000000000000000000, 1.000000000000000000 ) ) ;
#141 = PRESENTATION_LAYER_ASSIGNMENT (  '', '', ( #42 ) ) ;
#142 = LINE ( 'NONE', #44, #489 ) ;
#143 = VECTOR ( 'NONE', #308, 39.37007874015748100 ) ;
#144 = ORIENTED_EDGE ( 'NONE', *, *, #615, .T. ) ;
#145 = LINE ( 'NONE', #46, #149 ) ;
#146 = CARTESIAN_POINT ( 'NONE',  ( -0.1097103758093702500, 0.1250000000000000000, 0.3149606299212595600 ) ) ;
#147 = FACE_BOUND ( 'NONE', #917, .T. ) ;
#148 = CARTESIAN_POINT ( 'NONE',  ( 0.1257974398615422700, 0.06343110831417024500, 0.2288477511668491300 ) ) ;
#149 = VECTOR ( 'NONE', #898, 39.37007874015748100 ) ;
#150 = SURFACE_STYLE_FILL_AREA ( #257 ) ;
#151 = CARTESIAN_POINT ( 'NONE',  ( 0.1109509562049274300, 0.1420631916079865600, 0.1871740933586980600 ) ) ;
#152 = CARTESIAN_POINT ( 'NONE',  ( -1.000000000000000400, 0.5000000000000001100, 0.5000000000000000000 ) ) ;
#153 = CARTESIAN_POINT ( 'NONE',  ( -0.8000000000000007100, 0.3750000000000001100, 0.2500000000000000600 ) ) ;
#154 = STYLED_ITEM ( 'NONE', ( #244 ), #754 ) ;
#155 = CIRCLE ( 'NONE', #404, 0.1274999999999999500 ) ;
#156 = CIRCLE ( 'NONE', #416, 0.06496062992125956100 ) ;
#157 = CYLINDRICAL_SURFACE ( 'NONE', #936, 0.08267716535433047900 ) ;
#158 = LINE ( 'NONE', #811, #179 ) ;
#159 = PLANE ( 'NONE',  #608 ) ;
#160 = ADVANCED_FACE ( 'NONE', ( #949 ), #49, .F. ) ;
#161 = ORIENTED_EDGE ( 'NONE', *, *, #377, .T. ) ;
#162 = ORIENTED_EDGE ( 'NONE', *, *, #606, .F. ) ;
#163 = EDGE_CURVE ( 'NONE', #918, #168, #451, .T. ) ;
#164 = EDGE_LOOP ( 'NONE', ( #844, #67, #426, #705 ) ) ;
#165 = DIRECTION ( 'NONE',  ( 1.000000000000000000, 1.821231995776175000E-016, -0.0000000000000000000 ) ) ;
#166 = EDGE_CURVE ( 'NONE', #586, #265, #886, .T. ) ;
#167 = LINE ( 'NONE', #63, #392 ) ;
#168 = VERTEX_POINT ( 'NONE', #610 ) ;
#169 = ADVANCED_FACE ( 'NONE', ( #892 ), #119, .F. ) ;
#170 = MECHANICAL_DESIGN_GEOMETRIC_PRESENTATION_REPRESENTATION (  '', ( #42 ), #935 ) ;
#171 = ORIENTED_EDGE ( 'NONE', *, *, #258, .T. ) ;
#172 = AXIS2_PLACEMENT_3D ( 'NONE', #634, #61, #919 ) ;
#173 = EDGE_CURVE ( 'NONE', #790, #780, #167, .T. ) ;
#174 = DIRECTION ( 'NONE',  ( 1.000000000000000000, -0.0000000000000000000, -0.0000000000000000000 ) ) ;
#175 = DIRECTION ( 'NONE',  ( 1.821231995776175000E-016, -1.000000000000000000, 0.0000000000000000000 ) ) ;
#176 = CARTESIAN_POINT ( 'NONE',  ( 0.1177976821493834100, 0.08201959330618438500, 0.2988868913486139600 ) ) ;
#177 = VECTOR ( 'NONE', #174, 39.37007874015748100 ) ;
#178 = EDGE_CURVE ( 'NONE', #753, #841, #731, .T. ) ;
#179 = VECTOR ( 'NONE', #723, 39.37007874015748100 ) ;
#180 = B_SPLINE_CURVE_WITH_KNOTS ( 'NONE', 3,
 ( #876, #787, #696, #599, #499, #402, #301, #207, #107, #4, #855, #769, #670, #578, #478, #374, #282, #187, #78, #937, #838, #742, #652, #554 ),
 .UNSPECIFIED., .F., .F.,
 ( 4, 2, 2, 2, 2, 2, 2, 2, 2, 2, 2, 4 ),
 ( 0.0000000000000000000, 0.0003282393233098141100, 0.0006564786466196282300, 0.001312957293239256500, 0.001969435939858885000, 0.002297675263168699800, 0.002625914586478514200, 0.003282393233098145600, 0.003610632556407960800, 0.003938871879717775200, 0.004595350526337406600, 0.005251829172957038800 ),
 .UNSPECIFIED. ) ;
#181 = LINE ( 'NONE', #73, #902 ) ;
#182 = AXIS2_PLACEMENT_3D ( 'NONE', #798, #710, #621 ) ;
#183 = EDGE_CURVE ( 'NONE', #797, #298, #156, .T. ) ;
#184 = UNCERTAINTY_MEASURE_WITH_UNIT (LENGTH_MEASURE( 1.000000000000000100E-005 ), #268, 'distance_accuracy_value', 'NONE');
#185 = DIRECTION ( 'NONE',  ( -0.0000000000000000000, -1.000000000000000000, -0.0000000000000000000 ) ) ;
#186 = DIRECTION ( 'NONE',  ( -1.092739197465705100E-015, 1.000000000000000000, 0.0000000000000000000 ) ) ;
#187 = CARTESIAN_POINT ( 'NONE',  ( -0.1211831007660088700, 0.07348843485906177100, 0.2898016882379962900 ) ) ;
#188 = DIRECTION ( 'NONE',  ( 1.024442997624098700E-016, -1.000000000000000000, 0.0000000000000000000 ) ) ;
#189 = CARTESIAN_POINT ( 'NONE',  ( -0.5000000000000001100, 0.0000000000000000000, 0.5000000000000000000 ) ) ;
#190 = STYLED_ITEM ( 'NONE', ( #229 ), #885 ) ;
#191 = ORIENTED_EDGE ( 'NONE', *, *, #890, .F. ) ;
#192 = DIRECTION ( 'NONE',  ( 1.092739197465705700E-015, -1.000000000000000000, 0.0000000000000000000 ) ) ;
#193 = SURFACE_STYLE_FILL_AREA ( #288 ) ;
#194 = EDGE_LOOP ( 'NONE', ( #620, #786 ) ) ;
#195 = ORIENTED_EDGE ( 'NONE', *, *, #84, .F. ) ;
#196 = PRESENTATION_LAYER_ASSIGNMENT (  '', '', ( #120 ) ) ;
#197 = DIRECTION ( 'NONE',  ( 1.092739197465705100E-015, -1.000000000000000000, 0.0000000000000000000 ) ) ;
#198 = DIRECTION ( 'NONE',  ( 1.024442997624098700E-016, -1.000000000000000000, 0.0000000000000000000 ) ) ;
#199 = DIRECTION ( 'NONE',  ( -1.092739197465705700E-015, 1.000000000000000000, 0.0000000000000000000 ) ) ;
#200 = FACE_BOUND ( 'NONE', #720, .T. ) ;
#201 = VECTOR ( 'NONE', #276, 39.37007874015748100 ) ;
#202 = CARTESIAN_POINT ( 'NONE',  ( -0.1257974398615433800, 0.1865688916858296900, 0.2288477511668491100 ) ) ;
#203 = CARTESIAN_POINT ( 'NONE',  ( 0.4999999999999993300, 0.3750000000000005000, 0.5000000000000000000 ) ) ;
#204 = PRESENTATION_STYLE_ASSIGNMENT (( #297 ) ) ;
#205 = CARTESIAN_POINT ( 'NONE',  ( 0.4999999999999993300, 0.1250000000000000000, 0.2500000000000000000 ) ) ;
#206 = FACE_OUTER_BOUND ( 'NONE', #250, .T. ) ;
#207 = CARTESIAN_POINT ( 'NONE',  ( -0.1212035193563052600, 0.07319807471237269000, 0.2099282759626833700 ) ) ;
#208 =( GEOMETRIC_REPRESENTATION_CONTEXT ( 3 ) GLOBAL_UNCERTAINTY_ASSIGNED_CONTEXT ( ( #322 ) ) GLOBAL_UNIT_ASSIGNED_CONTEXT ( ( #724, #429, #135 ) ) REPRESENTATION_CONTEXT ( 'NONE', 'WORKASPACE' ) );
#209 = CARTESIAN_POINT ( 'NONE',  ( 0.1097103758093691500, 0.1336243016110263100, 0.3149606299212596700 ) ) ;
#210 = PRESENTATION_LAYER_ASSIGNMENT (  '', '', ( #190 ) ) ;
#211 = ORIENTED_EDGE ( 'NONE', *, *, #238, .F. ) ;
#212 = FILL_AREA_STYLE_COLOUR ( '', #373 ) ;
#213 = DIRECTION ( 'NONE',  ( -0.0000000000000000000, -0.0000000000000000000, -1.000000000000000000 ) ) ;
#214 = SURFACE_SIDE_STYLE ('',( #311 ) ) ;
#215 = ORIENTED_EDGE ( 'NONE', *, *, #764, .T. ) ;
#216 = VERTEX_POINT ( 'NONE', #247 ) ;
#217 = LENGTH_MEASURE_WITH_UNIT ( LENGTH_MEASURE( 0.02539999999999999900 ), #679 );
#218 = MECHANICAL_DESIGN_GEOMETRIC_PRESENTATION_REPRESENTATION (  '', ( #120 ), #767 ) ;
#219 = DIRECTION ( 'NONE',  ( 1.024442997624098800E-016, -1.000000000000000000, 0.0000000000000000000 ) ) ;
#220 = EDGE_LOOP ( 'NONE', ( #264, #929, #161, #768 ) ) ;
#221 = DIRECTION ( 'NONE',  ( -0.0000000000000000000, -0.0000000000000000000, -1.000000000000000000 ) ) ;
#222 = AXIS2_PLACEMENT_3D ( 'NONE', #68, #925, #825 ) ;
#223 = CARTESIAN_POINT ( 'NONE',  ( -0.1177976821493845200, 0.1679804066938157000, 0.2988868913486139600 ) ) ;
#224 = CARTESIAN_POINT ( 'NONE',  ( 0.1099798588870483700, 0.1162413694640387500, 0.1854890479262753800 ) ) ;
#225 = MECHANICAL_DESIGN_GEOMETRIC_PRESENTATION_REPRESENTATION (  '', ( #72 ), #128 ) ;
#226 =( CONVERSION_BASED_UNIT ( 'INCH', #820 ) LENGTH_UNIT ( ) NAMED_UNIT ( #252 ) );
#227 = PRODUCT_DEFINITION_FORMATION_WITH_SPECIFIED_SOURCE ( 'ANY', '', #569, .NOT_KNOWN. ) ;
#228 = CARTESIAN_POINT ( 'NONE',  ( 0.1274985093914024800, 0.1899577042626260100, 0.2456228914449046500 ) ) ;
#229 = PRESENTATION_STYLE_ASSIGNMENT (( #327 ) ) ;
#230 =( LENGTH_UNIT ( ) NAMED_UNIT ( * ) SI_UNIT ( $, .METRE. ) );
#231 = CIRCLE ( 'NONE', #757, 0.08267716535433035400 ) ;
#232 = ORIENTED_EDGE ( 'NONE', *, *, #456, .F. ) ;
#233 = MECHANICAL_DESIGN_GEOMETRIC_PRESENTATION_REPRESENTATION (  '', ( #190 ), #859 ) ;
#234 = EDGE_CURVE ( 'NONE', #411, #286, #142, .T. ) ;
#235 = LINE ( 'NONE', #134, #43 ) ;
#236 = DIMENSIONAL_EXPONENTS ( 1.000000000000000000, 0.0000000000000000000, 0.0000000000000000000, 0.0000000000000000000, 0.0000000000000000000, 0.0000000000000000000, 0.0000000000000000000 ) ;
#237 = CARTESIAN_POINT ( 'NONE',  ( 0.7999999999999993800, 0.3750000000000000600, 0.1673228346456696600 ) ) ;
#238 = EDGE_CURVE ( 'NONE', #612, #614, #708, .T. ) ;
#239 = DIRECTION ( 'NONE',  ( -0.0000000000000000000, -1.000000000000000000, -0.0000000000000000000 ) ) ;
#240 = VERTEX_POINT ( 'NONE', #415 ) ;
#241 = ADVANCED_FACE ( 'NONE', ( #466, #591, #512, #541 ), #796, .F. ) ;
#242 = ORIENTED_EDGE ( 'NONE', *, *, #316, .F. ) ;
#243 = FILL_AREA_STYLE_COLOUR ( '', #741 ) ;
#244 = PRESENTATION_STYLE_ASSIGNMENT (( #336 ) ) ;
#245 = ADVANCED_FACE ( 'NONE', ( #389, #464 ), #20, .F. ) ;
#246 = CARTESIAN_POINT ( 'NONE',  ( 0.0000000000000000000, 0.0000000000000000000, 0.0000000000000000000 ) ) ;
#247 = CARTESIAN_POINT ( 'NONE',  ( -5.307553520437239600E-016, 3.061616997868189400E-019, 0.3775000000000000000 ) ) ;
#248 = ORIENTED_EDGE ( 'NONE', *, *, #547, .F. ) ;
#249 = EDGE_CURVE ( 'NONE', #432, #286, #524, .T. ) ;
#250 = EDGE_LOOP ( 'NONE', ( #916, #195, #248, #334 ) ) ;
#251 = DIRECTION ( 'NONE',  ( 0.0000000000000000000, 0.0000000000000000000, -1.000000000000000000 ) ) ;
#252 = DIMENSIONAL_EXPONENTS ( 1.000000000000000000, 0.0000000000000000000, 0.0000000000000000000, 0.0000000000000000000, 0.0000000000000000000, 0.0000000000000000000, 0.0000000000000000000 ) ;
#253 = DIMENSIONAL_EXPONENTS ( 1.000000000000000000, 0.0000000000000000000, 0.0000000000000000000, 0.0000000000000000000, 0.0000000000000000000, 0.0000000000000000000, 0.0000000000000000000 ) ;
#254 = DIMENSIONAL_EXPONENTS ( 1.000000000000000000, 0.0000000000000000000, 0.0000000000000000000, 0.0000000000000000000, 0.0000000000000000000, 0.0000000000000000000, 0.0000000000000000000 ) ;
#255 = CARTESIAN_POINT ( 'NONE',  ( 0.1264234595984286000, 0.06217430036137432100, 0.2329289537865998100 ) ) ;
#256 = EDGE_CURVE ( 'NONE', #439, #411, #672, .T. ) ;
#257 = FILL_AREA_STYLE ('',( #345 ) ) ;
#258 = EDGE_CURVE ( 'NONE', #333, #60, #25, .T. ) ;
#259 = CARTESIAN_POINT ( 'NONE',  ( 0.1099727153191375900, 0.1336623287704412100, 0.1854770497154289200 ) ) ;
#260 = LINE ( 'NONE', #152, #132 ) ;
#261 = DIRECTION ( 'NONE',  ( 0.0000000000000000000, 0.0000000000000000000, -1.000000000000000000 ) ) ;
#262 = DIRECTION ( 'NONE',  ( 1.000000000000000000, 0.0000000000000000000, 0.0000000000000000000 ) ) ;
#263 = DIRECTION ( 'NONE',  ( -1.000000000000000000, 2.731847993664261200E-016, 0.0000000000000000000 ) ) ;
#264 = ORIENTED_EDGE ( 'NONE', *, *, #683, .F. ) ;
#265 = VERTEX_POINT ( 'NONE', #783 ) ;
#266 = MANIFOLD_SOLID_BREP ( 'M4x0.7 Tapped Hole1', #321 ) ;
#267 = CARTESIAN_POINT ( 'NONE',  ( -0.5000000000000001100, 0.1250000000000000000, 0.2500000000000000000 ) ) ;
#268 =( CONVERSION_BASED_UNIT ( 'INCH', #30 ) LENGTH_UNIT ( ) NAMED_UNIT ( #254 ) );
#269 = DIRECTION ( 'NONE',  ( 0.0000000000000000000, 0.0000000000000000000, -1.000000000000000000 ) ) ;
#270 = ORIENTED_EDGE ( 'NONE', *, *, #173, .F. ) ;
#271 = LENGTH_MEASURE_WITH_UNIT ( LENGTH_MEASURE( 0.02539999999999999900 ), #381 );
#272 = CARTESIAN_POINT ( 'NONE',  ( 0.4999999999999993300, 0.1250000000000000000, 0.3149606299212595600 ) ) ;
#273 = CARTESIAN_POINT ( 'NONE',  ( -0.5000000000000002200, 0.3750000000000001100, 0.5000000000000000000 ) ) ;
#274 = CARTESIAN_POINT ( 'NONE',  ( 0.1166287902591643900, 0.08529127607695795300, 0.3015810967974788500 ) ) ;
#275 = CYLINDRICAL_SURFACE ( 'NONE', #367, 0.1274999999999999200 ) ;
#276 = DIRECTION ( 'NONE',  ( -0.0000000000000000000, -1.000000000000000000, -0.0000000000000000000 ) ) ;
#277 = VECTOR ( 'NONE', #221, 39.37007874015748100 ) ;
#278 = VECTOR ( 'NONE', #199, 39.37007874015748100 ) ;
#279 = CARTESIAN_POINT ( 'NONE',  ( -0.8000000000000007100, 0.3750000000000000600, 0.2500000000000000600 ) ) ;
#280 =( NAMED_UNIT ( * ) PLANE_ANGLE_UNIT ( ) SI_UNIT ( $, .RADIAN. ) );
#281 = VECTOR ( 'NONE', #213, 39.37007874015748100 ) ;
#282 = CARTESIAN_POINT ( 'NONE',  ( -0.1232577902515442200, 0.06878096150147947100, 0.2828182181138105800 ) ) ;
#283 = CARTESIAN_POINT ( 'NONE',  ( 0.7999999999999993800, 0.5000000000000003300, 0.2500000000000000000 ) ) ;
#284 = PLANE ( 'NONE',  #481 ) ;
#285 = LENGTH_MEASURE_WITH_UNIT ( LENGTH_MEASURE( 0.02539999999999999900 ), #878 );
#286 = VERTEX_POINT ( 'NONE', #873 ) ;
#287 = DIRECTION ( 'NONE',  ( -1.000000000000000000, -1.092739197465705700E-015, 0.0000000000000000000 ) ) ;
#288 = FILL_AREA_STYLE ('',( #383 ) ) ;
#289 = ORIENTED_EDGE ( 'NONE', *, *, #183, .T. ) ;
#290 = CARTESIAN_POINT ( 'NONE',  ( -1.000000000000000400, 0.5000000000000001100, 0.5000000000000000000 ) ) ;
#291 = CARTESIAN_POINT ( 'NONE',  ( -0.8000000000000007100, 0.5000000000000001100, 0.2500000000000000600 ) ) ;
#292 = ORIENTED_EDGE ( 'NONE', *, *, #391, .T. ) ;
#293 = CARTESIAN_POINT ( 'NONE',  ( 0.9999999999999996700, 0.3750000000000003900, 0.0000000000000000000 ) ) ;
#294 = VECTOR ( 'NONE', #542, 39.37007874015748100 ) ;
#295 = CARTESIAN_POINT ( 'NONE',  ( -0.1264234595984296800, 0.1878256996386257200, 0.2329289537865997200 ) ) ;
#296 = LINE ( 'NONE', #203, #473 ) ;
#297 = SURFACE_STYLE_USAGE ( .BOTH. , #400 ) ;
#298 = VERTEX_POINT ( 'NONE', #552 ) ;
#299 = AXIS2_PLACEMENT_3D ( 'NONE', #382, #287, #192 ) ;
#300 = CIRCLE ( 'NONE', #549, 0.08267716535433035400 ) ;
#301 = CARTESIAN_POINT ( 'NONE',  ( -0.1166565474659653400, 0.08497630169724838800, 0.1981609596443172600 ) ) ;
#302 = CARTESIAN_POINT ( 'NONE',  ( 0.1108071322725996000, 0.1422994620990959700, 0.3131791374942902200 ) ) ;
#303 =( NAMED_UNIT ( * ) PLANE_ANGLE_UNIT ( ) SI_UNIT ( $, .RADIAN. ) );
#304 =( NAMED_UNIT ( * ) SI_UNIT ( $, .STERADIAN. ) SOLID_ANGLE_UNIT ( ) );
#305 = COLOUR_RGB ( '',0.7921568627450980000, 0.8196078431372548800, 0.9333333333333333500 ) ;
#306 = ORIENTED_EDGE ( 'NONE', *, *, #313, .F. ) ;
#307 = EDGE_CURVE ( 'NONE', #168, #918, #231, .T. ) ;
#308 = DIRECTION ( 'NONE',  ( 1.000000000000000000, -0.0000000000000000000, -0.0000000000000000000 ) ) ;
#309 = CARTESIAN_POINT ( 'NONE',  ( 0.4999999999999993300, 0.3750000000000005000, 0.5000000000000000000 ) ) ;
#310 = ADVANCED_FACE ( 'NONE', ( #733 ), #488, .F. ) ;
#311 = SURFACE_STYLE_FILL_AREA ( #410 ) ;
#312 = ORIENTED_EDGE ( 'NONE', *, *, #87, .T. ) ;
#313 = EDGE_CURVE ( 'NONE', #628, #83, #673, .T. ) ;
#314 = ORIENTED_EDGE ( 'NONE', *, *, #388, .T. ) ;
#315 =( NAMED_UNIT ( * ) PLANE_ANGLE_UNIT ( ) SI_UNIT ( $, .RADIAN. ) );
#316 = EDGE_CURVE ( 'NONE', #339, #530, #180, .T. ) ;
#317 = CARTESIAN_POINT ( 'NONE',  ( 0.9999999999999995600, 0.5000000000000003300, 0.5000000000000000000 ) ) ;
#318 = ORIENTED_EDGE ( 'NONE', *, *, #100, .F. ) ;
#319 = CARTESIAN_POINT ( 'NONE',  ( -1.000000000000000200, 0.3750000000000001100, 0.5000000000000000000 ) ) ;
#320 = CARTESIAN_POINT ( 'NONE',  ( -0.1166287902591655300, 0.1647087239230420900, 0.3015810967974789600 ) ) ;
#321 = CLOSED_SHELL ( 'NONE', ( #459, #754, #885, #674, #529, #887, #241, #817, #462, #245, #822, #896, #684, #899, #622, #474, #396, #310, #169, #160 ) ) ;
#322 = UNCERTAINTY_MEASURE_WITH_UNIT (LENGTH_MEASURE( 1.000000000000000100E-005 ), #724, 'distance_accuracy_value', 'NONE');
#323 = CARTESIAN_POINT ( 'NONE',  ( 0.1109694478303068200, 0.1078138835156517000, 0.1872065772034181800 ) ) ;
#324 = EDGE_CURVE ( 'NONE', #386, #863, #744, .T. ) ;
#325 = UNCERTAINTY_MEASURE_WITH_UNIT (LENGTH_MEASURE( 1.000000000000000100E-005 ), #702, 'distance_accuracy_value', 'NONE');
#326 = CARTESIAN_POINT ( 'NONE',  ( 0.1272767418086482000, 0.1895255410020154900, 0.2413490033523009700 ) ) ;
#327 = SURFACE_STYLE_USAGE ( .BOTH. , #424 ) ;
#328 = VECTOR ( 'NONE', #775, 39.37007874015748100 ) ;
#329 = ORIENTED_EDGE ( 'NONE', *, *, #611, .F. ) ;
#330 = DIRECTION ( 'NONE',  ( -0.0000000000000000000, -1.000000000000000000, -0.0000000000000000000 ) ) ;
#331 = CARTESIAN_POINT ( 'NONE',  ( 0.4999999999999993300, 0.3750000000000005000, 0.5000000000000000000 ) ) ;
#332 = CARTESIAN_POINT ( 'NONE',  ( 0.7999999999999993800, 0.3750000000000000600, 0.2500000000000000000 ) ) ;
#333 = VERTEX_POINT ( 'NONE', #56 ) ;
#334 = ORIENTED_EDGE ( 'NONE', *, *, #9, .T. ) ;
#335 = DIRECTION ( 'NONE',  ( 1.000000000000000000, -2.731847993664261200E-016, 0.0000000000000000000 ) ) ;
#336 = SURFACE_STYLE_USAGE ( .BOTH. , #435 ) ;
#337 = DIRECTION ( 'NONE',  ( 0.0000000000000000000, 1.000000000000000000, 0.0000000000000000000 ) ) ;
#338 = EDGE_LOOP ( 'NONE', ( #583, #823 ) ) ;
#339 = VERTEX_POINT ( 'NONE', #914 ) ;
#340 = CYLINDRICAL_SURFACE ( 'NONE', #469, 0.06496062992125958800 ) ;
#341 = DIRECTION ( 'NONE',  ( -0.0000000000000000000, -1.000000000000000000, -0.0000000000000000000 ) ) ;
#342 = CARTESIAN_POINT ( 'NONE',  ( 0.1272796251963407600, 0.06046876424266860200, 0.2413855490288373000 ) ) ;
#343 = FACE_OUTER_BOUND ( 'NONE', #867, .T. ) ;
#344 = ORIENTED_EDGE ( 'NONE', *, *, #384, .T. ) ;
#345 = FILL_AREA_STYLE_COLOUR ( '', #305 ) ;
#346 = VECTOR ( 'NONE', #664, 39.37007874015748100 ) ;
#347 = CARTESIAN_POINT ( 'NONE',  ( 0.1097103758093692000, 0.1293772068576432300, 0.1850393700787404400 ) ) ;
#348 = CARTESIAN_POINT ( 'NONE',  ( 0.9999999999999996700, 0.3750000000000003900, 0.0000000000000000000 ) ) ;
#349 = DIRECTION ( 'NONE',  ( -0.0000000000000000000, -1.000000000000000000, -0.0000000000000000000 ) ) ;
#350 =( GEOMETRIC_REPRESENTATION_CONTEXT ( 3 ) GLOBAL_UNCERTAINTY_ASSIGNED_CONTEXT ( ( #832 ) ) GLOBAL_UNIT_ASSIGNED_CONTEXT ( ( #118, #777, #486 ) ) REPRESENTATION_CONTEXT ( 'NONE', 'WORKASPACE' ) );
#351 = VECTOR ( 'NONE', #584, 39.37007874015748100 ) ;
#352 = DIRECTION ( 'NONE',  ( 1.024442997624098700E-016, -1.000000000000000000, 0.0000000000000000000 ) ) ;
#353 = PRESENTATION_STYLE_ASSIGNMENT (( #453 ) ) ;
#354 = DIRECTION ( 'NONE',  ( 2.731847993664261200E-016, 1.000000000000000000, -0.0000000000000000000 ) ) ;
#355 = AXIS2_PLACEMENT_3D ( 'NONE', #840, #745, #654 ) ;
#356 = EDGE_LOOP ( 'NONE', ( #864, #682, #492, #525 ) ) ;
#357 = ORIENTED_EDGE ( 'NONE', *, *, #238, .T. ) ;
#358 = DIRECTION ( 'NONE',  ( 0.0000000000000000000, 0.0000000000000000000, -1.000000000000000000 ) ) ;
#359 = DIRECTION ( 'NONE',  ( 1.000000000000000000, -0.0000000000000000000, -0.0000000000000000000 ) ) ;
#360 = EDGE_LOOP ( 'NONE', ( #633, #776, #292, #897 ) ) ;
#361 = ORIENTED_EDGE ( 'NONE', *, *, #831, .F. ) ;
#362 = LINE ( 'NONE', #272, #177 ) ;
#363 = FACE_OUTER_BOUND ( 'NONE', #816, .T. ) ;
#364 = LINE ( 'NONE', #273, #856 ) ;
#365 = CARTESIAN_POINT ( 'NONE',  ( 0.1144504421460003800, 0.09223703698236085400, 0.3062492716106801600 ) ) ;
#366 = CARTESIAN_POINT ( 'NONE',  ( -5.307553520437239600E-016, -1.865748365121865700E-032, 0.3774999999999999500 ) ) ;
#367 = AXIS2_PLACEMENT_3D ( 'NONE', #442, #341, #251 ) ;
#368 = CARTESIAN_POINT ( 'NONE',  ( -0.1109694478303079200, 0.1421861164843482600, 0.1872065772034181600 ) ) ;
#369 = PRESENTATION_LAYER_ASSIGNMENT (  '', '', ( #72 ) ) ;
#370 = DIRECTION ( 'NONE',  ( -1.092739197465705700E-015, 1.000000000000000000, 0.0000000000000000000 ) ) ;
#371 = CIRCLE ( 'NONE', #698, 0.08267716535433047900 ) ;
#372 = ORIENTED_EDGE ( 'NONE', *, *, #532, .T. ) ;
#373 = COLOUR_RGB ( '',0.7921568627450980000, 0.8196078431372548800, 0.9333333333333333500 ) ;
#374 = CARTESIAN_POINT ( 'NONE',  ( -0.1241975573708799100, 0.06676957481511944200, 0.2791100966877743100 ) ) ;
#375 = DIRECTION ( 'NONE',  ( 1.000000000000000000, 0.0000000000000000000, -0.0000000000000000000 ) ) ;
#376 = DIRECTION ( 'NONE',  ( 0.0000000000000000000, 0.0000000000000000000, -1.000000000000000000 ) ) ;
#377 = EDGE_CURVE ( 'NONE', #298, #339, #158, .T. ) ;
#378 = AXIS2_PLACEMENT_3D ( 'NONE', #454, #354, #263 ) ;
#379 = ORIENTED_EDGE ( 'NONE', *, *, #163, .T. ) ;
#380 = EDGE_CURVE ( 'NONE', #863, #168, #527, .T. ) ;
#381 =( LENGTH_UNIT ( ) NAMED_UNIT ( * ) SI_UNIT ( $, .METRE. ) );
#382 = CARTESIAN_POINT ( 'NONE',  ( 0.9999999999999996700, 0.3750000000000003900, 0.5000000000000000000 ) ) ;
#383 = FILL_AREA_STYLE_COLOUR ( '', #3 ) ;
#384 = EDGE_CURVE ( 'NONE', #841, #614, #235, .T. ) ;
#385 =( CONVERSION_BASED_UNIT ( 'INCH', #217 ) LENGTH_UNIT ( ) NAMED_UNIT ( #567 ) );
#386 = VERTEX_POINT ( 'NONE', #884 ) ;
#387 = EDGE_LOOP ( 'NONE', ( #314, #215, #562, #122, #889, #137, #736, #59 ) ) ;
#388 = EDGE_CURVE ( 'NONE', #71, #240, #791, .T. ) ;
#389 = FACE_BOUND ( 'NONE', #34, .T. ) ;
#390 = LINE ( 'NONE', #290, #789 ) ;
#391 = EDGE_CURVE ( 'NONE', #60, #539, #504, .T. ) ;
#392 = VECTOR ( 'NONE', #922, 39.37007874015748100 ) ;
#393 = DIRECTION ( 'NONE',  ( 0.0000000000000000000, 0.0000000000000000000, -1.000000000000000000 ) ) ;
#394 = EDGE_LOOP ( 'NONE', ( #643, #405, #773, #728 ) ) ;
#395 = LINE ( 'NONE', #293, #278 ) ;
#396 = ADVANCED_FACE ( 'NONE', ( #538 ), #18, .F. ) ;
#397 = CARTESIAN_POINT ( 'NONE',  ( -0.1272796251963418700, 0.1895312357573314400, 0.2413855490288372400 ) ) ;
#398 = UNCERTAINTY_MEASURE_WITH_UNIT (LENGTH_MEASURE( 1.000000000000000100E-005 ), #616, 'distance_accuracy_value', 'NONE');
#399 = LINE ( 'NONE', #852, #495 ) ;
#400 = SURFACE_SIDE_STYLE ('',( #497 ) ) ;
#401 = ORIENTED_EDGE ( 'NONE', *, *, #307, .T. ) ;
#402 = CARTESIAN_POINT ( 'NONE',  ( -0.1142967388198281300, 0.09205370581749185200, 0.1933757297429855300 ) ) ;
#403 = CARTESIAN_POINT ( 'NONE',  ( 0.1142704884857766000, 0.1578450204021658900, 0.3066752100853784600 ) ) ;
#404 = AXIS2_PLACEMENT_3D ( 'NONE', #86, #941, #842 ) ;
#405 = ORIENTED_EDGE ( 'NONE', *, *, #9, .F. ) ;
#406 = FACE_BOUND ( 'NONE', #194, .T. ) ;
#407 = CARTESIAN_POINT ( 'NONE',  ( 0.4999999999999993300, 0.1250000000000000000, 0.1850393700787404100 ) ) ;
#408 = LINE ( 'NONE', #309, #281 ) ;
#409 =( NAMED_UNIT ( * ) PLANE_ANGLE_UNIT ( ) SI_UNIT ( $, .RADIAN. ) );
#410 = FILL_AREA_STYLE ('',( #506 ) ) ;
#411 = VERTEX_POINT ( 'NONE', #818 ) ;
#412 =( LENGTH_UNIT ( ) NAMED_UNIT ( * ) SI_UNIT ( $, .METRE. ) );
#413 = APPLICATION_PROTOCOL_DEFINITION ( 'draft international standard', 'automotive_design', 1998, #668 ) ;
#414 = PRESENTATION_LAYER_ASSIGNMENT (  '', '', ( #589 ) ) ;
#415 = CARTESIAN_POINT ( 'NONE',  ( -1.000000000000000400, 0.5000000000000001100, 0.5000000000000000000 ) ) ;
#416 = AXIS2_PLACEMENT_3D ( 'NONE', #821, #436, #337 ) ;
#417 = ORIENTED_EDGE ( 'NONE', *, *, #384, .F. ) ;
#418 = FACE_BOUND ( 'NONE', #613, .T. ) ;
#419 = LINE ( 'NONE', #319, #277 ) ;
#420 = CARTESIAN_POINT ( 'NONE',  ( -0.1144504421460014700, 0.1577629630176391500, 0.3062492716106801100 ) ) ;
#421 = CARTESIAN_POINT ( 'NONE',  ( 0.1116813583887737200, 0.1037688727618290600, 0.1884618372460368000 ) ) ;
#422 = ORIENTED_EDGE ( 'NONE', *, *, #90, .F. ) ;
#423 = CARTESIAN_POINT ( 'NONE',  ( 0.1264213998138119800, 0.1878215469967207100, 0.2329167211127341500 ) ) ;
#424 = SURFACE_SIDE_STYLE ('',( #521 ) ) ;
#425 = FACE_OUTER_BOUND ( 'NONE', #164, .T. ) ;
#426 = ORIENTED_EDGE ( 'NONE', *, *, #21, .T. ) ;
#427 = CARTESIAN_POINT ( 'NONE',  ( 0.7999999999999993800, 0.3750000000000001100, 0.3326771653543305100 ) ) ;
#428 = FACE_BOUND ( 'NONE', #22, .T. ) ;
#429 =( NAMED_UNIT ( * ) PLANE_ANGLE_UNIT ( ) SI_UNIT ( $, .RADIAN. ) );
#430 = DIRECTION ( 'NONE',  ( 0.0000000000000000000, 0.0000000000000000000, -1.000000000000000000 ) ) ;
#431 = ORIENTED_EDGE ( 'NONE', *, *, #388, .F. ) ;
#432 = VERTEX_POINT ( 'NONE', #729 ) ;
#433 = EDGE_LOOP ( 'NONE', ( #344, #211, #511, #636 ) ) ;
#434 = CARTESIAN_POINT ( 'NONE',  ( 0.4999999999999993300, 0.3750000000000005000, 0.0000000000000000000 ) ) ;
#435 = SURFACE_SIDE_STYLE ('',( #534 ) ) ;
#436 = DIRECTION ( 'NONE',  ( 1.000000000000000000, 1.821231995776175000E-016, -0.0000000000000000000 ) ) ;
#437 = AXIS2_PLACEMENT_3D ( 'NONE', #866, #778, #685 ) ;
#438 = ORIENTED_EDGE ( 'NONE', *, *, #824, .T. ) ;
#439 = VERTEX_POINT ( 'NONE', #639 ) ;
#440 = VECTOR ( 'NONE', #536, 39.37007874015748100 ) ;
#441 = VECTOR ( 'NONE', #335, 39.37007874015748100 ) ;
#442 = CARTESIAN_POINT ( 'NONE',  ( -5.463695987328526400E-016, -1.865748365121865700E-032, 0.2500000000000000000 ) ) ;
#443 = CARTESIAN_POINT ( 'NONE',  ( 0.1275020729083710400, 0.06003530152357488400, 0.2457581087810469000 ) ) ;
#444 = ORIENTED_EDGE ( 'NONE', *, *, #906, .T. ) ;
#445 = CARTESIAN_POINT ( 'NONE',  ( 0.9999999999999996700, 0.3750000000000003900, 0.5000000000000000000 ) ) ;
#446 = CARTESIAN_POINT ( 'NONE',  ( -0.5000000000000001100, 0.0000000000000000000, 0.0000000000000000000 ) ) ;
#447 = DIRECTION ( 'NONE',  ( 1.000000000000000000, 0.0000000000000000000, 0.0000000000000000000 ) ) ;
#448 = CARTESIAN_POINT ( 'NONE',  ( 0.7999999999999993800, 0.3750000000000000600, 0.2500000000000000000 ) ) ;
#449 = CIRCLE ( 'NONE', #450, 0.06496062992125965800 ) ;
#450 = AXIS2_PLACEMENT_3D ( 'NONE', #749, #461, #358 ) ;
#451 = CIRCLE ( 'NONE', #16, 0.08267716535433035400 ) ;
#452 = CARTESIAN_POINT ( 'NONE',  ( 0.7999999999999993800, 0.5000000000000003300, 0.2500000000000000000 ) ) ;
#453 = SURFACE_STYLE_USAGE ( .BOTH. , #555 ) ;
#454 = CARTESIAN_POINT ( 'NONE',  ( 0.4999999999999993300, 0.3750000000000005000, 0.5000000000000000000 ) ) ;
#455 = FACE_OUTER_BOUND ( 'NONE', #394, .T. ) ;
#456 = EDGE_CURVE ( 'NONE', #780, #882, #533, .T. ) ;
#457 = ORIENTED_EDGE ( 'NONE', *, *, #313, .T. ) ;
#458 = ORIENTED_EDGE ( 'NONE', *, *, #249, .F. ) ;
#459 = ADVANCED_FACE ( 'NONE', ( #363 ), #340, .F. ) ;
#460 =( NAMED_UNIT ( * ) SI_UNIT ( $, .STERADIAN. ) SOLID_ANGLE_UNIT ( ) );
#461 = DIRECTION ( 'NONE',  ( 1.000000000000000000, -0.0000000000000000000, -0.0000000000000000000 ) ) ;
#462 = ADVANCED_FACE ( 'NONE', ( #418, #714 ), #755, .F. ) ;
#463 = ORIENTED_EDGE ( 'NONE', *, *, #249, .T. ) ;
#464 = FACE_OUTER_BOUND ( 'NONE', #433, .T. ) ;
#465 = DIRECTION ( 'NONE',  ( 0.0000000000000000000, -0.0000000000000000000, 1.000000000000000000 ) ) ;
#466 = FACE_BOUND ( 'NONE', #338, .T. ) ;
#467 = PLANE ( 'NONE',  #772 ) ;
#468 = EDGE_CURVE ( 'NONE', #333, #91, #362, .T. ) ;
#469 = AXIS2_PLACEMENT_3D ( 'NONE', #93, #945, #845 ) ;
#470 = CARTESIAN_POINT ( 'NONE',  ( 0.1134310717286388700, 0.09593079825199255000, 0.3082507758311345300 ) ) ;
#471 = PRODUCT_DEFINITION ( 'UNKNOWN', '', #227, #711 ) ;
#472 = LINE ( 'NONE', #366, #201 ) ;
#473 = VECTOR ( 'NONE', #102, 39.37007874015748100 ) ;
#474 = ADVANCED_FACE ( 'NONE', ( #688, #200 ), #24, .F. ) ;
#475 = CARTESIAN_POINT ( 'NONE',  ( -0.1116813583887747800, 0.1462311272381708300, 0.1884618372460367700 ) ) ;
#476 = CARTESIAN_POINT ( 'NONE',  ( 0.9999999999999996700, 0.3750000000000003900, 0.5000000000000000000 ) ) ;
#477 = AXIS2_PLACEMENT_3D ( 'NONE', #267, #165, #62 ) ;
#478 = CARTESIAN_POINT ( 'NONE',  ( -0.1265795446706173000, 0.06179812145991730300, 0.2672798384030830000 ) ) ;
#479 = DIRECTION ( 'NONE',  ( 0.0000000000000000000, 0.0000000000000000000, 1.000000000000000000 ) ) ;
#480 = DIRECTION ( 'NONE',  ( -0.0000000000000000000, -1.000000000000000000, -0.0000000000000000000 ) ) ;
#481 = AXIS2_PLACEMENT_3D ( 'NONE', #189, #81, #939 ) ;
#482 = ORIENTED_EDGE ( 'NONE', *, *, #84, .T. ) ;
#483 = PLANE ( 'NONE',  #299 ) ;
#484 = ORIENTED_EDGE ( 'NONE', *, *, #166, .F. ) ;
#485 = ORIENTED_EDGE ( 'NONE', *, *, #824, .F. ) ;
#486 =( NAMED_UNIT ( * ) SI_UNIT ( $, .STERADIAN. ) SOLID_ANGLE_UNIT ( ) );
#487 = DIRECTION ( 'NONE',  ( 0.0000000000000000000, 0.0000000000000000000, -1.000000000000000000 ) ) ;
#488 = CYLINDRICAL_SURFACE ( 'NONE', #799, 0.08267716535433047900 ) ;
#489 = VECTOR ( 'NONE', #895, 39.37007874015748100 ) ;
#490 = DIRECTION ( 'NONE',  ( -0.0000000000000000000, -1.000000000000000000, -0.0000000000000000000 ) ) ;
#491 = STYLED_ITEM ( 'NONE', ( #707 ), #459 ) ;
#492 = ORIENTED_EDGE ( 'NONE', *, *, #617, .F. ) ;
#493 = CARTESIAN_POINT ( 'NONE',  ( 0.9999999999999995600, 0.5000000000000003300, 0.5000000000000000000 ) ) ;
#494 = CARTESIAN_POINT ( 'NONE',  ( -0.1275020729083721500, 0.1899646984764251600, 0.2457581087810468700 ) ) ;
#495 = VECTOR ( 'NONE', #765, 39.37007874015748100 ) ;
#496 = CARTESIAN_POINT ( 'NONE',  ( -0.1097103758093702600, 0.1250000000000000000, 0.1850393700787404100 ) ) ;
#497 = SURFACE_STYLE_FILL_AREA ( #597 ) ;
#498 = PRODUCT_DEFINITION_SHAPE ( 'NONE', 'NONE',  #471 ) ;
#499 = CARTESIAN_POINT ( 'NONE',  ( -0.1116784683281904800, 0.1037812861644777400, 0.1884563542385057600 ) ) ;
#500 = CARTESIAN_POINT ( 'NONE',  ( 0.1166311910943046600, 0.1649515681725922400, 0.3018960094166950300 ) ) ;
#501 = AXIS2_PLACEMENT_3D ( 'NONE', #920, #588, #487 ) ;
#502 = EDGE_LOOP ( 'NONE', ( #686, #8, #750, #849 ) ) ;
#503 = FACE_OUTER_BOUND ( 'NONE', #387, .T. ) ;
#504 = LINE ( 'NONE', #407, #143 ) ;
#505 = DIRECTION ( 'NONE',  ( 0.0000000000000000000, 0.0000000000000000000, -1.000000000000000000 ) ) ;
#506 = FILL_AREA_STYLE_COLOUR ( '', #604 ) ;
#507 = EDGE_LOOP ( 'NONE', ( #537, #558, #401, #329 ) ) ;
#508 = PRODUCT_CONTEXT ( 'NONE', #111, 'mechanical' ) ;
#509 = DIRECTION ( 'NONE',  ( -0.0000000000000000000, -0.0000000000000000000, -1.000000000000000000 ) ) ;
#510 = AXIS2_PLACEMENT_3D ( 'NONE', #590, #490, #393 ) ;
#511 = ORIENTED_EDGE ( 'NONE', *, *, #814, .F. ) ;
#512 = FACE_BOUND ( 'NONE', #592, .T. ) ;
#513 = CARTESIAN_POINT ( 'NONE',  ( -5.463695987328526400E-016, 0.5000000000000002200, 0.2500000000000000000 ) ) ;
#514 = PRESENTATION_LAYER_ASSIGNMENT (  '', '', ( #491 ) ) ;
#515 = CARTESIAN_POINT ( 'NONE',  ( -0.1134310717286398900, 0.1540692017480074800, 0.3082507758311344700 ) ) ;
#516 = CARTESIAN_POINT ( 'NONE',  ( 0.1134194804967399000, 0.09598253097887332600, 0.1917274272874054400 ) ) ;
#517 = FACE_OUTER_BOUND ( 'NONE', #38, .T. ) ;
#518 =( LENGTH_UNIT ( ) NAMED_UNIT ( * ) SI_UNIT ( $, .METRE. ) );
#519 = CARTESIAN_POINT ( 'NONE',  ( 0.1257791521070539000, 0.1865312926439129100, 0.2287465019650026000 ) ) ;
#520 = CIRCLE ( 'NONE', #355, 0.1274999999999999200 ) ;
#521 = SURFACE_STYLE_FILL_AREA ( #630 ) ;
#522 = PRESENTATION_STYLE_ASSIGNMENT (( #631 ) ) ;
#523 = CYLINDRICAL_SURFACE ( 'NONE', #501, 0.06496062992125958800 ) ;
#524 = CIRCLE ( 'NONE', #510, 0.08267716535433035400 ) ;
#525 = ORIENTED_EDGE ( 'NONE', *, *, #14, .T. ) ;
#526 = EDGE_CURVE ( 'NONE', #612, #15, #734, .T. ) ;
#527 = LINE ( 'NONE', #427, #923 ) ;
#528 = DIRECTION ( 'NONE',  ( -0.0000000000000000000, -1.000000000000000000, -0.0000000000000000000 ) ) ;
#529 = ADVANCED_FACE ( 'NONE', ( #147, #343 ), #275, .F. ) ;
#530 = VERTEX_POINT ( 'NONE', #146 ) ;
#531 = ORIENTED_EDGE ( 'NONE', *, *, #17, .T. ) ;
#532 = EDGE_CURVE ( 'NONE', #530, #339, #761, .T. ) ;
#533 = LINE ( 'NONE', #434, #441 ) ;
#534 = SURFACE_STYLE_FILL_AREA ( #640 ) ;
#535 = EDGE_CURVE ( 'NONE', #908, #117, #296, .T. ) ;
#536 = DIRECTION ( 'NONE',  ( -0.0000000000000000000, -0.0000000000000000000, -1.000000000000000000 ) ) ;
#537 = ORIENTED_EDGE ( 'NONE', *, *, #627, .F. ) ;
#538 = FACE_OUTER_BOUND ( 'NONE', #39, .T. ) ;
#539 = VERTEX_POINT ( 'NONE', #2 ) ;
#540 = EDGE_CURVE ( 'NONE', #265, #704, #399, .T. ) ;
#541 = FACE_OUTER_BOUND ( 'NONE', #546, .T. ) ;
#542 = DIRECTION ( 'NONE',  ( 1.000000000000000000, 0.0000000000000000000, 0.0000000000000000000 ) ) ;
#543 = MECHANICAL_DESIGN_GEOMETRIC_PRESENTATION_REPRESENTATION (  '', ( #491 ), #350 ) ;
#544 = UNCERTAINTY_MEASURE_WITH_UNIT (LENGTH_MEASURE( 1.000000000000000100E-005 ), #576, 'distance_accuracy_value', 'NONE');
#545 = CARTESIAN_POINT ( 'NONE',  ( 0.1274958091708083800, 0.06004759553624484200, 0.2586693478452115600 ) ) ;
#546 = EDGE_LOOP ( 'NONE', ( #746, #361, #431, #482 ) ) ;
#547 = EDGE_CURVE ( 'NONE', #117, #71, #575, .T. ) ;
#548 = CARTESIAN_POINT ( 'NONE',  ( -5.307553520437239600E-016, 0.5000000000000002200, 0.3774999999999999500 ) ) ;
#549 = AXIS2_PLACEMENT_3D ( 'NONE', #279, #185, #74 ) ;
#550 = CARTESIAN_POINT ( 'NONE',  ( -0.5000000000000001100, 0.0000000000000000000, 0.5000000000000000000 ) ) ;
#551 = CARTESIAN_POINT ( 'NONE',  ( -0.5000000000000001100, 0.0000000000000000000, 0.0000000000000000000 ) ) ;
#552 = CARTESIAN_POINT ( 'NONE',  ( -0.5000000000000001100, 0.1250000000000000000, 0.1850393700787404100 ) ) ;
#553 = PRESENTATION_LAYER_ASSIGNMENT (  '', '', ( #154 ) ) ;
#554 = CARTESIAN_POINT ( 'NONE',  ( -0.1097103758093702500, 0.1250000000000000000, 0.3149606299212595600 ) ) ;
#555 = SURFACE_SIDE_STYLE ('',( #653 ) ) ;
#556 = PLANE ( 'NONE',  #378 ) ;
#557 = ORIENTED_EDGE ( 'NONE', *, *, #316, .T. ) ;
#558 = ORIENTED_EDGE ( 'NONE', *, *, #380, .T. ) ;
#559 = CARTESIAN_POINT ( 'NONE',  ( -1.000000000000000200, 0.3750000000000001100, 0.5000000000000000000 ) ) ;
#560 =( LENGTH_UNIT ( ) NAMED_UNIT ( * ) SI_UNIT ( $, .METRE. ) );
#561 = EDGE_LOOP ( 'NONE', ( #138, #709 ) ) ;
#562 = ORIENTED_EDGE ( 'NONE', *, *, #617, .T. ) ;
#563 = AXIS2_PLACEMENT_3D ( 'NONE', #291, #198, #95 ) ;
#564 = DIRECTION ( 'NONE',  ( 0.0000000000000000000, 1.000000000000000000, 0.0000000000000000000 ) ) ;
#565 = DIRECTION ( 'NONE',  ( 1.000000000000000000, 0.0000000000000000000, 0.0000000000000000000 ) ) ;
#566 = VECTOR ( 'NONE', #509, 39.37007874015748100 ) ;
#567 = DIMENSIONAL_EXPONENTS ( 1.000000000000000000, 0.0000000000000000000, 0.0000000000000000000, 0.0000000000000000000, 0.0000000000000000000, 0.0000000000000000000, 0.0000000000000000000 ) ;
#568 = CARTESIAN_POINT ( 'NONE',  ( 0.1116703448870059200, 0.1038180174690472300, 0.3115588741876739700 ) ) ;
#569 = PRODUCT ( 'Pinching motor shaft ALU', 'Pinching motor shaft ALU', '', ( #508 ) ) ;
#570 = DIMENSIONAL_EXPONENTS ( 1.000000000000000000, 0.0000000000000000000, 0.0000000000000000000, 0.0000000000000000000, 0.0000000000000000000, 0.0000000000000000000, 0.0000000000000000000 ) ;
#571 = LINE ( 'NONE', #737, #928 ) ;
#572 = DIMENSIONAL_EXPONENTS ( 1.000000000000000000, 0.0000000000000000000, 0.0000000000000000000, 0.0000000000000000000, 0.0000000000000000000, 0.0000000000000000000, 0.0000000000000000000 ) ;
#573 = VECTOR ( 'NONE', #370, 39.37007874015748100 ) ;
#574 = CARTESIAN_POINT ( 'NONE',  ( -0.1134194804967409700, 0.1540174690211266200, 0.1917274272874053600 ) ) ;
#575 = LINE ( 'NONE', #476, #573 ) ;
#576 =( CONVERSION_BASED_UNIT ( 'INCH', #661 ) LENGTH_UNIT ( ) NAMED_UNIT ( #865 ) );
#577 = EDGE_LOOP ( 'NONE', ( #793, #587 ) ) ;
#578 = CARTESIAN_POINT ( 'NONE',  ( -0.1275029588147970300, 0.06003356273127285300, 0.2586233055612900400 ) ) ;
#579 = CARTESIAN_POINT ( 'NONE',  ( 0.0000000000000000000, 0.0000000000000000000, 0.0000000000000000000 ) ) ;
#580 = MECHANICAL_DESIGN_GEOMETRIC_PRESENTATION_REPRESENTATION (  '', ( #154 ), #55 ) ;
#581 = CARTESIAN_POINT ( 'NONE',  ( -0.8000000000000007100, 0.3750000000000001100, 0.2500000000000000600 ) ) ;
#582 =( GEOMETRIC_REPRESENTATION_CONTEXT ( 3 ) GLOBAL_UNCERTAINTY_ASSIGNED_CONTEXT ( ( #184 ) ) GLOBAL_UNIT_ASSIGNED_CONTEXT ( ( #268, #921, #641 ) ) REPRESENTATION_CONTEXT ( 'NONE', 'WORKASPACE' ) );
#583 = ORIENTED_EDGE ( 'NONE', *, *, #256, .T. ) ;
#584 = DIRECTION ( 'NONE',  ( 1.000000000000000000, -0.0000000000000000000, -0.0000000000000000000 ) ) ;
#585 = APPLICATION_PROTOCOL_DEFINITION ( 'draft international standard', 'automotive_design', 1998, #111 ) ;
#586 = VERTEX_POINT ( 'NONE', #667 ) ;
#587 = ORIENTED_EDGE ( 'NONE', *, *, #21, .F. ) ;
#588 = DIRECTION ( 'NONE',  ( 1.000000000000000000, -0.0000000000000000000, -0.0000000000000000000 ) ) ;
#589 = STYLED_ITEM ( 'NONE', ( #204 ), #266 ) ;
#590 = CARTESIAN_POINT ( 'NONE',  ( -0.8000000000000007100, 0.3750000000000000600, 0.2500000000000000600 ) ) ;
#591 = FACE_BOUND ( 'NONE', #561, .T. ) ;
#592 = EDGE_LOOP ( 'NONE', ( #531, #888 ) ) ;
#593 = LENGTH_MEASURE_WITH_UNIT ( LENGTH_MEASURE( 0.02539999999999999900 ), #412 );
#594 = DIRECTION ( 'NONE',  ( 0.0000000000000000000, 0.0000000000000000000, -1.000000000000000000 ) ) ;
#595 = CARTESIAN_POINT ( 'NONE',  ( -0.1274958091708094900, 0.1899524044637551600, 0.2586693478452115100 ) ) ;
#596 = CARTESIAN_POINT ( 'NONE',  ( -0.1097103758093702400, 0.1293688768828053500, 0.1850393700787403800 ) ) ;
#597 = FILL_AREA_STYLE ('',( #693 ) ) ;
#598 =( NAMED_UNIT ( * ) SI_UNIT ( $, .STERADIAN. ) SOLID_ANGLE_UNIT ( ) );
#599 = CARTESIAN_POINT ( 'NONE',  ( -0.1109509562049284900, 0.1079368083920134600, 0.1871740933586979700 ) ) ;
#600 = CARTESIAN_POINT ( 'NONE',  ( 0.1200455194204546300, 0.1738054820547371700, 0.2930728266942930800 ) ) ;
#601 = CIRCLE ( 'NONE', #666, 0.08267716535433047900 ) ;
#602 =( CONVERSION_BASED_UNIT ( 'INCH', #285 ) LENGTH_UNIT ( ) NAMED_UNIT ( #872 ) );
#603 =( NAMED_UNIT ( * ) PLANE_ANGLE_UNIT ( ) SI_UNIT ( $, .RADIAN. ) );
#604 = COLOUR_RGB ( '',0.7921568627450980000, 0.8196078431372548800, 0.9333333333333333500 ) ;
#605 = ORIENTED_EDGE ( 'NONE', *, *, #611, .T. ) ;
#606 = EDGE_CURVE ( 'NONE', #286, #432, #300, .T. ) ;
#607 = DIRECTION ( 'NONE',  ( -1.000000000000000000, -1.024442997624098800E-016, 0.0000000000000000000 ) ) ;
#608 = AXIS2_PLACEMENT_3D ( 'NONE', #58, #915, #813 ) ;
#609 = DIRECTION ( 'NONE',  ( -0.0000000000000000000, -1.000000000000000000, -0.0000000000000000000 ) ) ;
#610 = CARTESIAN_POINT ( 'NONE',  ( 0.7999999999999993800, 0.3750000000000000600, 0.3326771653543303400 ) ) ;
#611 = EDGE_CURVE ( 'NONE', #386, #918, #834, .T. ) ;
#612 = VERTEX_POINT ( 'NONE', #550 ) ;
#613 = EDGE_LOOP ( 'NONE', ( #458, #162 ) ) ;
#614 = VERTEX_POINT ( 'NONE', #446 ) ;
#615 = EDGE_CURVE ( 'NONE', #60, #333, #904, .T. ) ;
#616 =( CONVERSION_BASED_UNIT ( 'INCH', #632 ) LENGTH_UNIT ( ) NAMED_UNIT ( #570 ) );
#617 = EDGE_CURVE ( 'NONE', #706, #753, #857, .T. ) ;
#618 = CARTESIAN_POINT ( 'NONE',  ( -0.5000000000000001100, 0.0000000000000000000, 0.5000000000000000000 ) ) ;
#619 = MECHANICAL_DESIGN_GEOMETRIC_PRESENTATION_REPRESENTATION (  '', ( #589 ), #105 ) ;
#620 = ORIENTED_EDGE ( 'NONE', *, *, #691, .F. ) ;
#621 = DIRECTION ( 'NONE',  ( 0.0000000000000000000, 0.0000000000000000000, -1.000000000000000000 ) ) ;
#622 = ADVANCED_FACE ( 'NONE', ( #517 ), #5, .F. ) ;
#623 = CARTESIAN_POINT ( 'NONE',  ( -0.1116703448870070000, 0.1461819825309527700, 0.3115588741876739700 ) ) ;
#624 = CIRCLE ( 'NONE', #126, 0.1274999999999999200 ) ;
#625 = CARTESIAN_POINT ( 'NONE',  ( 0.1144568793554561900, 0.09221492638851983000, 0.1937638725426234800 ) ) ;
#626 = FACE_OUTER_BOUND ( 'NONE', #507, .T. ) ;
#627 = EDGE_CURVE ( 'NONE', #863, #386, #601, .T. ) ;
#628 = VERTEX_POINT ( 'NONE', #839 ) ;
#629 = CARTESIAN_POINT ( 'NONE',  ( 0.1234220724934517500, 0.1816120759019099500, 0.2170353650802293600 ) ) ;
#630 = FILL_AREA_STYLE ('',( #718 ) ) ;
#631 = SURFACE_STYLE_USAGE ( .BOTH. , #719 ) ;
#632 = LENGTH_MEASURE_WITH_UNIT ( LENGTH_MEASURE( 0.02539999999999999900 ), #893 );
#633 = ORIENTED_EDGE ( 'NONE', *, *, #468, .F. ) ;
#634 = CARTESIAN_POINT ( 'NONE',  ( 0.7999999999999993800, 0.3750000000000001100, 0.2500000000000000000 ) ) ;
#635 = CARTESIAN_POINT ( 'NONE',  ( -0.8000000000000007100, 0.3750000000000001100, 0.1673228346456695800 ) ) ;
#636 = ORIENTED_EDGE ( 'NONE', *, *, #178, .T. ) ;
#637 = ORIENTED_EDGE ( 'NONE', *, *, #752, .T. ) ;
#638 = ORIENTED_EDGE ( 'NONE', *, *, #377, .F. ) ;
#639 = CARTESIAN_POINT ( 'NONE',  ( -0.8000000000000007100, 0.5000000000000001100, 0.1673228346456695800 ) ) ;
#640 = FILL_AREA_STYLE ('',( #730 ) ) ;
#641 =( NAMED_UNIT ( * ) SI_UNIT ( $, .STERADIAN. ) SOLID_ANGLE_UNIT ( ) );
#642 = CARTESIAN_POINT ( 'NONE',  ( -0.5000000000000002200, 0.3750000000000001100, 0.5000000000000000000 ) ) ;
#643 = ORIENTED_EDGE ( 'NONE', *, *, #456, .T. ) ;
#644 = ORIENTED_EDGE ( 'NONE', *, *, #764, .F. ) ;
#645 = CARTESIAN_POINT ( 'NONE',  ( -0.5000000000000001100, 0.0000000000000000000, 0.5000000000000000000 ) ) ;
#646 = CARTESIAN_POINT ( 'NONE',  ( 0.1265633383430586100, 0.06183234697687883800, 0.2673530140076571000 ) ) ;
#647 = ORIENTED_EDGE ( 'NONE', *, *, #691, .T. ) ;
#648 = DIRECTION ( 'NONE',  ( 0.0000000000000000000, 1.000000000000000000, 0.0000000000000000000 ) ) ;
#649 = VECTOR ( 'NONE', #650, 39.37007874015748100 ) ;
#650 = DIRECTION ( 'NONE',  ( -0.0000000000000000000, -1.000000000000000000, -0.0000000000000000000 ) ) ;
#651 = LINE ( 'NONE', #551, #109 ) ;
#652 = CARTESIAN_POINT ( 'NONE',  ( -0.1097103758093702400, 0.1163756983889737000, 0.3149606299212595600 ) ) ;
#653 = SURFACE_STYLE_FILL_AREA ( #743 ) ;
#654 = DIRECTION ( 'NONE',  ( 1.000000000000000000, 0.0000000000000000000, 0.0000000000000000000 ) ) ;
#655 = ORIENTED_EDGE ( 'NONE', *, *, #14, .F. ) ;
#656 = CARTESIAN_POINT ( 'NONE',  ( -1.000000000000000200, 0.3750000000000001100, 0.0000000000000000000 ) ) ;
#657 = ORIENTED_EDGE ( 'NONE', *, *, #87, .F. ) ;
#658 = ORIENTED_EDGE ( 'NONE', *, *, #380, .F. ) ;
#659 = CARTESIAN_POINT ( 'NONE',  ( -1.000000000000000200, 0.3750000000000001100, 0.5000000000000000000 ) ) ;
#660 = DIRECTION ( 'NONE',  ( 1.024442997624098700E-016, -1.000000000000000000, 0.0000000000000000000 ) ) ;
#661 = LENGTH_MEASURE_WITH_UNIT ( LENGTH_MEASURE( 0.02539999999999999900 ), #853 );
#662 = CARTESIAN_POINT ( 'NONE',  ( 0.1109570118146360100, 0.1078958888739281300, 0.3128152775025154200 ) ) ;
#663 = AXIS2_PLACEMENT_3D ( 'NONE', #659, #564, #465 ) ;
#664 = DIRECTION ( 'NONE',  ( -0.0000000000000000000, -0.0000000000000000000, -1.000000000000000000 ) ) ;
#665 = CARTESIAN_POINT ( 'NONE',  ( -0.1144568793554572200, 0.1577850736114800600, 0.1937638725426234500 ) ) ;
#666 = AXIS2_PLACEMENT_3D ( 'NONE', #283, #188, #80 ) ;
#667 = CARTESIAN_POINT ( 'NONE',  ( 0.9999999999999995600, 0.5000000000000003300, 0.0000000000000000000 ) ) ;
#668 = APPLICATION_CONTEXT ( 'automotive_design' ) ;
#669 = COLOUR_RGB ( '',0.7921568627450980000, 0.8196078431372548800, 0.9333333333333333500 ) ;
#670 = CARTESIAN_POINT ( 'NONE',  ( -0.1274985093914035900, 0.06004229573737406700, 0.2456228914449046500 ) ) ;
#671 = DIRECTION ( 'NONE',  ( 1.000000000000000000, 0.0000000000000000000, 0.0000000000000000000 ) ) ;
#672 = CIRCLE ( 'NONE', #563, 0.08267716535433047900 ) ;
#673 = LINE ( 'NONE', #130, #124 ) ;
#674 = ADVANCED_FACE ( 'NONE', ( #626 ), #766, .F. ) ;
#675 = ORIENTED_EDGE ( 'NONE', *, *, #683, .T. ) ;
#676 = EDGE_CURVE ( 'NONE', #908, #780, #408, .T. ) ;
#677 = PRESENTATION_STYLE_ASSIGNMENT (( #774 ) ) ;
#678 = CARTESIAN_POINT ( 'NONE',  ( 0.4999999999999993300, 0.1250000000000000000, 0.3149606299212595600 ) ) ;
#679 =( LENGTH_UNIT ( ) NAMED_UNIT ( * ) SI_UNIT ( $, .METRE. ) );
#680 = EDGE_CURVE ( 'NONE', #15, #790, #11, .T. ) ;
#681 = ORIENTED_EDGE ( 'NONE', *, *, #28, .F. ) ;
#682 = ORIENTED_EDGE ( 'NONE', *, *, #178, .F. ) ;
#683 = EDGE_CURVE ( 'NONE', #797, #530, #113, .T. ) ;
#684 = ADVANCED_FACE ( 'NONE', ( #206 ), #483, .F. ) ;
#685 = DIRECTION ( 'NONE',  ( -1.821231995776175000E-016, 1.000000000000000000, 0.0000000000000000000 ) ) ;
#686 = ORIENTED_EDGE ( 'NONE', *, *, #812, .F. ) ;
#687 = DIRECTION ( 'NONE',  ( 1.000000000000000000, -0.0000000000000000000, -0.0000000000000000000 ) ) ;
#688 = FACE_OUTER_BOUND ( 'NONE', #940, .T. ) ;
#689 = CARTESIAN_POINT ( 'NONE',  ( -0.1265633383430597400, 0.1881676530231211900, 0.2673530140076569900 ) ) ;
#690 = UNCERTAINTY_MEASURE_WITH_UNIT (LENGTH_MEASURE( 1.000000000000000100E-005 ), #85, 'distance_accuracy_value', 'NONE');
#691 = EDGE_CURVE ( 'NONE', #83, #216, #155, .T. ) ;
#692 = CARTESIAN_POINT ( 'NONE',  ( -0.1099798588870494900, 0.1337586305359612600, 0.1854890479262753500 ) ) ;
#693 = FILL_AREA_STYLE_COLOUR ( '', #7 ) ;
#694 = VECTOR ( 'NONE', #671, 39.37007874015748100 ) ;
#695 = UNCERTAINTY_MEASURE_WITH_UNIT (LENGTH_MEASURE( 1.000000000000000100E-005 ), #602, 'distance_accuracy_value', 'NONE');
#696 = CARTESIAN_POINT ( 'NONE',  ( -0.1099727153191386700, 0.1163376712295587500, 0.1854770497154289200 ) ) ;
#697 = CARTESIAN_POINT ( 'NONE',  ( 0.1211831007660077900, 0.1765115651409381900, 0.2898016882379964000 ) ) ;
#698 = AXIS2_PLACEMENT_3D ( 'NONE', #756, #660, #565 ) ;
#699 = ORIENTED_EDGE ( 'NONE', *, *, #163, .F. ) ;
#700 = CARTESIAN_POINT ( 'NONE',  ( 0.9999999999999995600, 0.5000000000000003300, 0.5000000000000000000 ) ) ;
#701 = CARTESIAN_POINT ( 'NONE',  ( 0.7999999999999993800, 0.3750000000000001100, 0.2500000000000000000 ) ) ;
#702 =( CONVERSION_BASED_UNIT ( 'INCH', #784 ) LENGTH_UNIT ( ) NAMED_UNIT ( #572 ) );
#703 = DIRECTION ( 'NONE',  ( -1.000000000000000000, -1.024442997624098800E-016, 0.0000000000000000000 ) ) ;
#704 = VERTEX_POINT ( 'NONE', #656 ) ;
#705 = ORIENTED_EDGE ( 'NONE', *, *, #391, .F. ) ;
#706 = VERTEX_POINT ( 'NONE', #559 ) ;
#707 = PRESENTATION_STYLE_ASSIGNMENT (( #795 ) ) ;
#708 = LINE ( 'NONE', #618, #566 ) ;
#709 = ORIENTED_EDGE ( 'NONE', *, *, #627, .T. ) ;
#710 = DIRECTION ( 'NONE',  ( -0.0000000000000000000, -1.000000000000000000, -0.0000000000000000000 ) ) ;
#711 = PRODUCT_DEFINITION_CONTEXT ( 'detailed design', #668, 'design' ) ;
#712 = AXIS2_PLACEMENT_3D ( 'NONE', #781, #687, #594 ) ;
#713 = CARTESIAN_POINT ( 'NONE',  ( -0.1109570118146370900, 0.1421041111260719100, 0.3128152775025154200 ) ) ;
#714 = FACE_OUTER_BOUND ( 'NONE', #356, .T. ) ;
#715 = CARTESIAN_POINT ( 'NONE',  ( 0.1166339062462451700, 0.08527655722147649300, 0.1984305208778115400 ) ) ;
#716 = AXIS2_PLACEMENT_3D ( 'NONE', #701, #609, #505 ) ;
#717 = CARTESIAN_POINT ( 'NONE',  ( 0.1212035193563041600, 0.1768019252876273900, 0.2099282759626834600 ) ) ;
#718 = FILL_AREA_STYLE_COLOUR ( '', #808 ) ;
#719 = SURFACE_SIDE_STYLE ('',( #807 ) ) ;
#720 = EDGE_LOOP ( 'NONE', ( #144, #171 ) ) ;
#721 =( GEOMETRIC_REPRESENTATION_CONTEXT ( 3 ) GLOBAL_UNCERTAINTY_ASSIGNED_CONTEXT ( ( #325 ) ) GLOBAL_UNIT_ASSIGNED_CONTEXT ( ( #702, #409, #114 ) ) REPRESENTATION_CONTEXT ( 'NONE', 'WORKASPACE' ) );
#722 = FACE_OUTER_BOUND ( 'NONE', #944, .T. ) ;
#723 = DIRECTION ( 'NONE',  ( 1.000000000000000000, -0.0000000000000000000, -0.0000000000000000000 ) ) ;
#724 =( CONVERSION_BASED_UNIT ( 'INCH', #76 ) LENGTH_UNIT ( ) NAMED_UNIT ( #870 ) );
#725 = LINE ( 'NONE', #635, #763 ) ;
#726 = EDGE_LOOP ( 'NONE', ( #97, #45, #318, #110 ) ) ;
#727 = ORIENTED_EDGE ( 'NONE', *, *, #256, .F. ) ;
#728 = ORIENTED_EDGE ( 'NONE', *, *, #676, .T. ) ;
#729 = CARTESIAN_POINT ( 'NONE',  ( -0.8000000000000007100, 0.3750000000000000600, 0.1673228346456697200 ) ) ;
#730 = FILL_AREA_STYLE_COLOUR ( '', #669 ) ;
#731 = LINE ( 'NONE', #642, #440 ) ;
#732 = ORIENTED_EDGE ( 'NONE', *, *, #307, .F. ) ;
#733 = FACE_OUTER_BOUND ( 'NONE', #129, .T. ) ;
#734 = LINE ( 'NONE', #645, #294 ) ;
#735 = CARTESIAN_POINT ( 'NONE',  ( 0.1242125051642786600, 0.06673817748311775000, 0.2790394987514641100 ) ) ;
#736 = ORIENTED_EDGE ( 'NONE', *, *, #535, .T. ) ;
#737 = CARTESIAN_POINT ( 'NONE',  ( 0.4999999999999993300, 0.0000000000000000000, 0.5000000000000000000 ) ) ;
#738 = CARTESIAN_POINT ( 'NONE',  ( 0.7999999999999993800, 0.3750000000000001100, 0.1673228346456695200 ) ) ;
#739 = DIRECTION ( 'NONE',  ( 0.0000000000000000000, 0.0000000000000000000, 1.000000000000000000 ) ) ;
#740 = PRODUCT_RELATED_PRODUCT_CATEGORY ( 'part', '', ( #569 ) ) ;
#741 = COLOUR_RGB ( '',0.7921568627450980000, 0.8196078431372548800, 0.9333333333333333500 ) ;
#742 = CARTESIAN_POINT ( 'NONE',  ( -0.1108071322726006500, 0.1077005379009040300, 0.3131791374942902700 ) ) ;
#743 = FILL_AREA_STYLE ('',( #938 ) ) ;
#744 = CIRCLE ( 'NONE', #48, 0.08267716535433047900 ) ;
#745 = DIRECTION ( 'NONE',  ( 1.024442997624098700E-016, -1.000000000000000000, 0.0000000000000000000 ) ) ;
#746 = ORIENTED_EDGE ( 'NONE', *, *, #166, .T. ) ;
#747 = EDGE_CURVE ( 'NONE', #539, #91, #449, .T. ) ;
#748 =( NAMED_UNIT ( * ) PLANE_ANGLE_UNIT ( ) SI_UNIT ( $, .RADIAN. ) );
#749 = CARTESIAN_POINT ( 'NONE',  ( 0.4999999999999993300, 0.1250000000000000000, 0.2500000000000000000 ) ) ;
#750 = ORIENTED_EDGE ( 'NONE', *, *, #606, .T. ) ;
#751 =( NAMED_UNIT ( * ) SI_UNIT ( $, .STERADIAN. ) SOLID_ANGLE_UNIT ( ) );
#752 = EDGE_CURVE ( 'NONE', #298, #797, #880, .T. ) ;
#753 = VERTEX_POINT ( 'NONE', #819 ) ;
#754 = ADVANCED_FACE ( 'NONE', ( #425 ), #523, .F. ) ;
#755 = PLANE ( 'NONE',  #663 ) ;
#756 = CARTESIAN_POINT ( 'NONE',  ( -0.8000000000000007100, 0.5000000000000001100, 0.2500000000000000600 ) ) ;
#757 = AXIS2_PLACEMENT_3D ( 'NONE', #448, #349, #261 ) ;
#758 = UNCERTAINTY_MEASURE_WITH_UNIT (LENGTH_MEASURE( 1.000000000000000100E-005 ), #226, 'distance_accuracy_value', 'NONE');
#759 = CARTESIAN_POINT ( 'NONE',  ( 0.1099746391234691400, 0.1163101555297568600, 0.3145197358039694700 ) ) ;
#760 = CARTESIAN_POINT ( 'NONE',  ( 0.9999999999999995600, 0.5000000000000003300, 0.5000000000000000000 ) ) ;
#761 = B_SPLINE_CURVE_WITH_KNOTS ( 'NONE', 3,
 ( #47, #901, #800, #713, #623, #515, #420, #320, #223, #125, #27, #871, #782, #689, #595, #494, #397, #295, #202, #101, #1, #851, #762, #665, #574, #475, #368, #692, #596, #496 ),
 .UNSPECIFIED., .F., .F.,
 ( 4, 2, 2, 2, 2, 2, 2, 2, 2, 2, 2, 2, 2, 2, 4 ),
 ( 0.005251829172957038800, 0.005579443845572272700, 0.005907058518187506500, 0.006234673190802740400, 0.006562287863417974300, 0.006889902536033209000, 0.007217517208648442000, 0.007872746553878911400, 0.008200361226494146100, 0.008527975899109382600, 0.009183205244339857200, 0.009510819916955091900, 0.009838434589570328400, 0.01016604926218556500, 0.01049366393480080100 ),
 .UNSPECIFIED. ) ;
#762 = CARTESIAN_POINT ( 'NONE',  ( -0.1166339062462462100, 0.1647234427785234100, 0.1984305208778114600 ) ) ;
#763 = VECTOR ( 'NONE', #528, 39.37007874015748100 ) ;
#764 = EDGE_CURVE ( 'NONE', #240, #706, #390, .T. ) ;
#765 = DIRECTION ( 'NONE',  ( 1.092739197465705100E-015, -1.000000000000000000, 0.0000000000000000000 ) ) ;
#766 = CYLINDRICAL_SURFACE ( 'NONE', #716, 0.08267716535433047900 ) ;
#767 =( GEOMETRIC_REPRESENTATION_CONTEXT ( 3 ) GLOBAL_UNCERTAINTY_ASSIGNED_CONTEXT ( ( #690 ) ) GLOBAL_UNIT_ASSIGNED_CONTEXT ( ( #85, #748, #460 ) ) REPRESENTATION_CONTEXT ( 'NONE', 'WORKASPACE' ) );
#768 = ORIENTED_EDGE ( 'NONE', *, *, #532, .F. ) ;
#769 = CARTESIAN_POINT ( 'NONE',  ( -0.1272767418086492900, 0.06047445899798439800, 0.2413490033523009400 ) ) ;
#770 = CARTESIAN_POINT ( 'NONE',  ( -1.000000000000000200, 0.3750000000000001100, 0.5000000000000000000 ) ) ;
#771 = DIRECTION ( 'NONE',  ( 0.0000000000000000000, 0.0000000000000000000, -1.000000000000000000 ) ) ;
#772 = AXIS2_PLACEMENT_3D ( 'NONE', #69, #926, #186 ) ;
#773 = ORIENTED_EDGE ( 'NONE', *, *, #535, .F. ) ;
#774 = SURFACE_STYLE_USAGE ( .BOTH. , #861 ) ;
#775 = DIRECTION ( 'NONE',  ( -0.0000000000000000000, -0.0000000000000000000, -1.000000000000000000 ) ) ;
#776 = ORIENTED_EDGE ( 'NONE', *, *, #615, .F. ) ;
#777 =( NAMED_UNIT ( * ) PLANE_ANGLE_UNIT ( ) SI_UNIT ( $, .RADIAN. ) );
#778 = DIRECTION ( 'NONE',  ( 1.000000000000000000, 1.821231995776175000E-016, -0.0000000000000000000 ) ) ;
#779 = STYLED_ITEM ( 'NONE', ( #522 ), #310 ) ;
#780 = VERTEX_POINT ( 'NONE', #946 ) ;
#781 = CARTESIAN_POINT ( 'NONE',  ( 0.4999999999999993300, 0.1250000000000000000, 0.2500000000000000000 ) ) ;
#782 = CARTESIAN_POINT ( 'NONE',  ( -0.1242125051642798000, 0.1832618225168822800, 0.2790394987514641700 ) ) ;
#783 = CARTESIAN_POINT ( 'NONE',  ( -1.000000000000000400, 0.5000000000000001100, 0.0000000000000000000 ) ) ;
#784 = LENGTH_MEASURE_WITH_UNIT ( LENGTH_MEASURE( 0.02539999999999999900 ), #36 );
#785 = STYLED_ITEM ( 'NONE', ( #353 ), #674 ) ;
#786 = ORIENTED_EDGE ( 'NONE', *, *, #12, .F. ) ;
#787 = CARTESIAN_POINT ( 'NONE',  ( -0.1097103758093702800, 0.1206227931423568000, 0.1850393700787403800 ) ) ;
#788 = CARTESIAN_POINT ( 'NONE',  ( 0.1232577902515431100, 0.1812190384985204700, 0.2828182181138105800 ) ) ;
#789 = VECTOR ( 'NONE', #197, 39.37007874015748100 ) ;
#790 = VERTEX_POINT ( 'NONE', #94 ) ;
#791 = LINE ( 'NONE', #700, #66 ) ;
#792 = CARTESIAN_POINT ( 'NONE',  ( 0.9999999999999995600, 0.5000000000000003300, 0.0000000000000000000 ) ) ;
#793 = ORIENTED_EDGE ( 'NONE', *, *, #747, .F. ) ;
#794 = ORIENTED_EDGE ( 'NONE', *, *, #234, .F. ) ;
#795 = SURFACE_STYLE_USAGE ( .BOTH. , #891 ) ;
#796 = PLANE ( 'NONE',  #64 ) ;
#797 = VERTEX_POINT ( 'NONE', #846 ) ;
#798 = CARTESIAN_POINT ( 'NONE',  ( -5.463695987328526400E-016, 3.061616997868189400E-019, 0.2500000000000000000 ) ) ;
#799 = AXIS2_PLACEMENT_3D ( 'NONE', #153, #858, #771 ) ;
#800 = CARTESIAN_POINT ( 'NONE',  ( -0.1099746391234702300, 0.1336898444702432100, 0.3145197358039694700 ) ) ;
#801 = CARTESIAN_POINT ( 'NONE',  ( 0.1177803888215780700, 0.08206602372605525900, 0.2010705559817854400 ) ) ;
#802 = PRESENTATION_STYLE_ASSIGNMENT (( #905 ) ) ;
#803 = PRESENTATION_LAYER_ASSIGNMENT (  '', '', ( #785 ) ) ;
#804 = ORIENTED_EDGE ( 'NONE', *, *, #183, .F. ) ;
#805 = CARTESIAN_POINT ( 'NONE',  ( 0.1166565474659642500, 0.1650236983027516800, 0.1981609596443174000 ) ) ;
#806 = CARTESIAN_POINT ( 'NONE',  ( 0.7999999999999993800, 0.5000000000000003300, 0.3326771653543305100 ) ) ;
#807 = SURFACE_STYLE_FILL_AREA ( #911 ) ;
#808 = COLOUR_RGB ( '',0.7921568627450980000, 0.8196078431372548800, 0.9333333333333333500 ) ;
#809 = ORIENTED_EDGE ( 'NONE', *, *, #17, .F. ) ;
#810 = COLOUR_RGB ( '',0.7921568627450980000, 0.8196078431372548800, 0.9333333333333333500 ) ;
#811 = CARTESIAN_POINT ( 'NONE',  ( 0.4999999999999993300, 0.1250000000000000000, 0.1850393700787404100 ) ) ;
#812 = EDGE_CURVE ( 'NONE', #411, #439, #371, .T. ) ;
#813 = DIRECTION ( 'NONE',  ( 1.000000000000000000, 0.0000000000000000000, -0.0000000000000000000 ) ) ;
#814 = EDGE_CURVE ( 'NONE', #753, #612, #364, .T. ) ;
#815 = ORIENTED_EDGE ( 'NONE', *, *, #540, .F. ) ;
#816 = EDGE_LOOP ( 'NONE', ( #804, #675, #242, #638 ) ) ;
#817 = ADVANCED_FACE ( 'NONE', ( #722 ), #467, .F. ) ;
#818 = CARTESIAN_POINT ( 'NONE',  ( -0.8000000000000007100, 0.5000000000000001100, 0.3326771653543305600 ) ) ;
#819 = CARTESIAN_POINT ( 'NONE',  ( -0.5000000000000002200, 0.3750000000000001100, 0.5000000000000000000 ) ) ;
#820 = LENGTH_MEASURE_WITH_UNIT ( LENGTH_MEASURE( 0.02539999999999999900 ), #518 );
#821 = CARTESIAN_POINT ( 'NONE',  ( -0.5000000000000001100, 0.1250000000000000000, 0.2500000000000000000 ) ) ;
#822 = ADVANCED_FACE ( 'NONE', ( #837, #881 ), #75, .F. ) ;
#823 = ORIENTED_EDGE ( 'NONE', *, *, #812, .T. ) ;
#824 = EDGE_CURVE ( 'NONE', #614, #790, #651, .T. ) ;
#825 = DIRECTION ( 'NONE',  ( 0.0000000000000000000, 0.0000000000000000000, -1.000000000000000000 ) ) ;
#826 = PRESENTATION_LAYER_ASSIGNMENT (  '', '', ( #779 ) ) ;
#827 = UNCERTAINTY_MEASURE_WITH_UNIT (LENGTH_MEASURE( 1.000000000000000100E-005 ), #385, 'distance_accuracy_value', 'NONE');
#828 = CARTESIAN_POINT ( 'NONE',  ( 0.1232619305536625500, 0.06877193459948192900, 0.2828026600067294900 ) ) ;
#829 = ORIENTED_EDGE ( 'NONE', *, *, #526, .F. ) ;
#830 = CARTESIAN_POINT ( 'NONE',  ( 0.4999999999999993300, 0.1250000000000000000, 0.3149606299212596700 ) ) ;
#831 = EDGE_CURVE ( 'NONE', #240, #265, #260, .T. ) ;
#832 = UNCERTAINTY_MEASURE_WITH_UNIT (LENGTH_MEASURE( 1.000000000000000100E-005 ), #118, 'distance_accuracy_value', 'NONE');
#833 = MECHANICAL_DESIGN_GEOMETRIC_PRESENTATION_REPRESENTATION (  '', ( #785 ), #208 ) ;
#834 = LINE ( 'NONE', #738, #649 ) ;
#835 = ADVANCED_BREP_SHAPE_REPRESENTATION ( 'Pinching motor shaft ALU', ( #266, #103 ), #721 ) ;
#836 = DIRECTION ( 'NONE',  ( -1.000000000000000000, 0.0000000000000000000, 0.0000000000000000000 ) ) ;
#837 = FACE_BOUND ( 'NONE', #577, .T. ) ;
#838 = CARTESIAN_POINT ( 'NONE',  ( -0.1142704884857776900, 0.09215497959783412700, 0.3066752100853785700 ) ) ;
#839 = CARTESIAN_POINT ( 'NONE',  ( -5.463695987328526400E-016, 0.5000000000000002200, 0.1225000000000000800 ) ) ;
#840 = CARTESIAN_POINT ( 'NONE',  ( -5.463695987328526400E-016, 0.5000000000000002200, 0.2500000000000000000 ) ) ;
#841 = VERTEX_POINT ( 'NONE', #910 ) ;
#842 = DIRECTION ( 'NONE',  ( 0.0000000000000000000, 0.0000000000000000000, -1.000000000000000000 ) ) ;
#843 = PRESENTATION_STYLE_ASSIGNMENT (( #942 ) ) ;
#844 = ORIENTED_EDGE ( 'NONE', *, *, #258, .F. ) ;
#845 = DIRECTION ( 'NONE',  ( 0.0000000000000000000, 0.0000000000000000000, -1.000000000000000000 ) ) ;
#846 = CARTESIAN_POINT ( 'NONE',  ( -0.5000000000000001100, 0.1250000000000000000, 0.3149606299212595600 ) ) ;
#847 = CARTESIAN_POINT ( 'NONE',  ( 0.1097103758093691500, 0.1206960553654252800, 0.3149606299212596700 ) ) ;
#848 = MECHANICAL_DESIGN_GEOMETRIC_PRESENTATION_REPRESENTATION (  '', ( #779 ), #912 ) ;
#849 = ORIENTED_EDGE ( 'NONE', *, *, #906, .F. ) ;
#850 = LINE ( 'NONE', #760, #346 ) ;
#851 = CARTESIAN_POINT ( 'NONE',  ( -0.1177803888215790700, 0.1679339762739446900, 0.2010705559817853000 ) ) ;
#852 = CARTESIAN_POINT ( 'NONE',  ( -1.000000000000000400, 0.5000000000000001100, 0.0000000000000000000 ) ) ;
#853 =( LENGTH_UNIT ( ) NAMED_UNIT ( * ) SI_UNIT ( $, .METRE. ) );
#854 = ORIENTED_EDGE ( 'NONE', *, *, #680, .F. ) ;
#855 = CARTESIAN_POINT ( 'NONE',  ( -0.1264213998138130600, 0.06217845300327927400, 0.2329167211127341800 ) ) ;
#856 = VECTOR ( 'NONE', #175, 39.37007874015748100 ) ;
#857 = LINE ( 'NONE', #770, #694 ) ;
#858 = DIRECTION ( 'NONE',  ( -0.0000000000000000000, -1.000000000000000000, -0.0000000000000000000 ) ) ;
#859 =( GEOMETRIC_REPRESENTATION_CONTEXT ( 3 ) GLOBAL_UNCERTAINTY_ASSIGNED_CONTEXT ( ( #695 ) ) GLOBAL_UNIT_ASSIGNED_CONTEXT ( ( #602, #303, #6 ) ) REPRESENTATION_CONTEXT ( 'NONE', 'WORKASPACE' ) );
#860 = EDGE_LOOP ( 'NONE', ( #438, #854, #829, #357 ) ) ;
#861 = SURFACE_SIDE_STYLE ('',( #10 ) ) ;
#862 = CARTESIAN_POINT ( 'NONE',  ( 0.4999999999999993300, 0.0000000000000000000, 0.5000000000000000000 ) ) ;
#863 = VERTEX_POINT ( 'NONE', #806 ) ;
#864 = ORIENTED_EDGE ( 'NONE', *, *, #90, .T. ) ;
#865 = DIMENSIONAL_EXPONENTS ( 1.000000000000000000, 0.0000000000000000000, 0.0000000000000000000, 0.0000000000000000000, 0.0000000000000000000, 0.0000000000000000000, 0.0000000000000000000 ) ;
#866 = CARTESIAN_POINT ( 'NONE',  ( -0.5000000000000002200, 0.3750000000000001100, 0.5000000000000000000 ) ) ;
#867 = EDGE_LOOP ( 'NONE', ( #191, #312, #116, #306 ) ) ;
#868 = DIRECTION ( 'NONE',  ( 1.000000000000000000, 0.0000000000000000000, 0.0000000000000000000 ) ) ;
#869 = DIMENSIONAL_EXPONENTS ( 1.000000000000000000, 0.0000000000000000000, 0.0000000000000000000, 0.0000000000000000000, 0.0000000000000000000, 0.0000000000000000000, 0.0000000000000000000 ) ;
#870 = DIMENSIONAL_EXPONENTS ( 1.000000000000000000, 0.0000000000000000000, 0.0000000000000000000, 0.0000000000000000000, 0.0000000000000000000, 0.0000000000000000000, 0.0000000000000000000 ) ;
#871 = CARTESIAN_POINT ( 'NONE',  ( -0.1232619305536636800, 0.1812280654005180300, 0.2828026600067294900 ) ) ;
#872 = DIMENSIONAL_EXPONENTS ( 1.000000000000000000, 0.0000000000000000000, 0.0000000000000000000, 0.0000000000000000000, 0.0000000000000000000, 0.0000000000000000000, 0.0000000000000000000 ) ;
#873 = CARTESIAN_POINT ( 'NONE',  ( -0.8000000000000007100, 0.3750000000000000600, 0.3326771653543304000 ) ) ;
#874 = STYLED_ITEM ( 'NONE', ( #843 ), #835 ) ;
#875 =( NAMED_UNIT ( * ) PLANE_ANGLE_UNIT ( ) SI_UNIT ( $, .RADIAN. ) );
#876 = CARTESIAN_POINT ( 'NONE',  ( -0.1097103758093702600, 0.1250000000000000000, 0.1850393700787404100 ) ) ;
#877 = CARTESIAN_POINT ( 'NONE',  ( 0.1241975573708788100, 0.1832304251848806100, 0.2791100966877742600 ) ) ;
#878 =( LENGTH_UNIT ( ) NAMED_UNIT ( * ) SI_UNIT ( $, .METRE. ) );
#879 =( CONVERSION_BASED_UNIT ( 'INCH', #900 ) LENGTH_UNIT ( ) NAMED_UNIT ( #869 ) );
#880 = CIRCLE ( 'NONE', #477, 0.06496062992125956100 ) ;
#881 = FACE_OUTER_BOUND ( 'NONE', #726, .T. ) ;
#882 = VERTEX_POINT ( 'NONE', #348 ) ;
#883 = CIRCLE ( 'NONE', #712, 0.06496062992125965800 ) ;
#884 = CARTESIAN_POINT ( 'NONE',  ( 0.7999999999999993800, 0.5000000000000003300, 0.1673228346456695200 ) ) ;
#885 = ADVANCED_FACE ( 'NONE', ( #79 ), #157, .F. ) ;
#886 = LINE ( 'NONE', #792, #92 ) ;
#887 = ADVANCED_FACE ( 'NONE', ( #913, #406 ), #284, .F. ) ;
#888 = ORIENTED_EDGE ( 'NONE', *, *, #890, .T. ) ;
#889 = ORIENTED_EDGE ( 'NONE', *, *, #526, .T. ) ;
#890 = EDGE_CURVE ( 'NONE', #133, #628, #520, .T. ) ;
#891 = SURFACE_SIDE_STYLE ('',( #40 ) ) ;
#892 = FACE_OUTER_BOUND ( 'NONE', #360, .T. ) ;
#893 =( LENGTH_UNIT ( ) NAMED_UNIT ( * ) SI_UNIT ( $, .METRE. ) );
#894 = SHAPE_DEFINITION_REPRESENTATION ( #498, #835 ) ;
#895 = DIRECTION ( 'NONE',  ( -0.0000000000000000000, -1.000000000000000000, -0.0000000000000000000 ) ) ;
#896 = ADVANCED_FACE ( 'NONE', ( #428, #455 ), #556, .F. ) ;
#897 = ORIENTED_EDGE ( 'NONE', *, *, #747, .T. ) ;
#898 = DIRECTION ( 'NONE',  ( -0.0000000000000000000, -0.0000000000000000000, -1.000000000000000000 ) ) ;
#899 = ADVANCED_FACE ( 'NONE', ( #503 ), #159, .T. ) ;
#900 = LENGTH_MEASURE_WITH_UNIT ( LENGTH_MEASURE( 0.02539999999999999900 ), #230 );
#901 = CARTESIAN_POINT ( 'NONE',  ( -0.1097103758093702800, 0.1293039446345747900, 0.3149606299212597300 ) ) ;
#902 = VECTOR ( 'NONE', #930, 39.37007874015748100 ) ;
#903 = CARTESIAN_POINT ( 'NONE',  ( 0.1212112574229709000, 0.07317631894900796000, 0.2099459988825398400 ) ) ;
#904 = B_SPLINE_CURVE_WITH_KNOTS ( 'NONE', 3,
 ( #932, #347, #259, #151, #52, #909, #805, #717, #629, #519, #423, #326, #228, #131, #32, #877, #788, #697, #600, #500, #403, #302, #209, #108 ),
 .UNSPECIFIED., .F., .F.,
 ( 4, 2, 2, 2, 2, 2, 2, 2, 2, 2, 2, 4 ),
 ( 0.0000000000000000000, 0.0003282393233098134100, 0.0006564786466196268200, 0.001312957293239253600, 0.001969435939858880700, 0.002297675263168693800, 0.002625914586478506400, 0.003282393233098134700, 0.003610632556407950900, 0.003938871879717766600, 0.004595350526337401400, 0.005251829172957040600 ),
 .UNSPECIFIED. ) ;
#905 = SURFACE_STYLE_USAGE ( .BOTH. , #51 ) ;
#906 = EDGE_CURVE ( 'NONE', #439, #432, #725, .T. ) ;
#907 = PRESENTATION_LAYER_ASSIGNMENT (  '', '', ( #874 ) ) ;
#908 = VERTEX_POINT ( 'NONE', #331 ) ;
#909 = CARTESIAN_POINT ( 'NONE',  ( 0.1142967388198270600, 0.1579462941825081900, 0.1933757297429856700 ) ) ;
#910 = CARTESIAN_POINT ( 'NONE',  ( -0.5000000000000002200, 0.3750000000000001100, 0.0000000000000000000 ) ) ;
#911 = FILL_AREA_STYLE ('',( #54 ) ) ;
#912 =( GEOMETRIC_REPRESENTATION_CONTEXT ( 3 ) GLOBAL_UNCERTAINTY_ASSIGNED_CONTEXT ( ( #99 ) ) GLOBAL_UNIT_ASSIGNED_CONTEXT ( ( #879, #603, #304 ) ) REPRESENTATION_CONTEXT ( 'NONE', 'WORKASPACE' ) );
#913 = FACE_OUTER_BOUND ( 'NONE', #860, .T. ) ;
#914 = CARTESIAN_POINT ( 'NONE',  ( -0.1097103758093702600, 0.1250000000000000000, 0.1850393700787404100 ) ) ;
#915 = DIRECTION ( 'NONE',  ( 0.0000000000000000000, 0.0000000000000000000, 1.000000000000000000 ) ) ;
#916 = ORIENTED_EDGE ( 'NONE', *, *, #28, .T. ) ;
#917 = EDGE_LOOP ( 'NONE', ( #557, #372 ) ) ;
#918 = VERTEX_POINT ( 'NONE', #237 ) ;
#919 = DIRECTION ( 'NONE',  ( 0.0000000000000000000, 0.0000000000000000000, -1.000000000000000000 ) ) ;
#920 = CARTESIAN_POINT ( 'NONE',  ( 0.4999999999999993300, 0.1250000000000000000, 0.2500000000000000000 ) ) ;
#921 =( NAMED_UNIT ( * ) PLANE_ANGLE_UNIT ( ) SI_UNIT ( $, .RADIAN. ) );
#922 = DIRECTION ( 'NONE',  ( 0.0000000000000000000, 1.000000000000000000, 0.0000000000000000000 ) ) ;
#923 = VECTOR ( 'NONE', #330, 39.37007874015748100 ) ;
#924 = ORIENTED_EDGE ( 'NONE', *, *, #324, .F. ) ;
#925 = DIRECTION ( 'NONE',  ( -0.0000000000000000000, -1.000000000000000000, -0.0000000000000000000 ) ) ;
#926 = DIRECTION ( 'NONE',  ( 1.000000000000000000, 1.092739197465705100E-015, -0.0000000000000000000 ) ) ;
#927 = CARTESIAN_POINT ( 'NONE',  ( 0.1211881457105789400, 0.07347662204748693600, 0.2897863213499881600 ) ) ;
#928 = VECTOR ( 'NONE', #648, 39.37007874015748100 ) ;
#929 = ORIENTED_EDGE ( 'NONE', *, *, #752, .F. ) ;
#930 = DIRECTION ( 'NONE',  ( 1.000000000000000000, 0.0000000000000000000, 0.0000000000000000000 ) ) ;
#931 = MECHANICAL_DESIGN_GEOMETRIC_PRESENTATION_REPRESENTATION (  '', ( #874 ), #582 ) ;
#932 = CARTESIAN_POINT ( 'NONE',  ( 0.1097103758093691700, 0.1250000000000000000, 0.1850393700787404100 ) ) ;
#933 = CARTESIAN_POINT ( 'NONE',  ( 0.4999999999999993300, 0.0000000000000000000, 0.5000000000000000000 ) ) ;
#934 =( NAMED_UNIT ( * ) SI_UNIT ( $, .STERADIAN. ) SOLID_ANGLE_UNIT ( ) );
#935 =( GEOMETRIC_REPRESENTATION_CONTEXT ( 3 ) GLOBAL_UNCERTAINTY_ASSIGNED_CONTEXT ( ( #827 ) ) GLOBAL_UNIT_ASSIGNED_CONTEXT ( ( #385, #89, #751 ) ) REPRESENTATION_CONTEXT ( 'NONE', 'WORKASPACE' ) );
#936 = AXIS2_PLACEMENT_3D ( 'NONE', #581, #480, #376 ) ;
#937 = CARTESIAN_POINT ( 'NONE',  ( -0.1166311910943057700, 0.08504843182740777500, 0.3018960094166950300 ) ) ;
#938 = FILL_AREA_STYLE_COLOUR ( '', #77 ) ;
#939 = DIRECTION ( 'NONE',  ( 0.0000000000000000000, -0.0000000000000000000, 1.000000000000000000 ) ) ;
#940 = EDGE_LOOP ( 'NONE', ( #657, #809, #457, #647 ) ) ;
#941 = DIRECTION ( 'NONE',  ( -0.0000000000000000000, -1.000000000000000000, -0.0000000000000000000 ) ) ;
#942 = SURFACE_STYLE_USAGE ( .BOTH. , #88 ) ;
#943 = AXIS2_PLACEMENT_3D ( 'NONE', #37, #359, #269 ) ;
#944 = EDGE_LOOP ( 'NONE', ( #65, #655, #644, #106 ) ) ;
#945 = DIRECTION ( 'NONE',  ( 1.000000000000000000, -0.0000000000000000000, -0.0000000000000000000 ) ) ;
#946 = CARTESIAN_POINT ( 'NONE',  ( 0.4999999999999993300, 0.3750000000000005000, 0.0000000000000000000 ) ) ;
#947 = CARTESIAN_POINT ( 'NONE',  ( 0.1097103758093691500, 0.1250000000000000000, 0.3149606299212595600 ) ) ;
#948 = CARTESIAN_POINT ( 'NONE',  ( -5.463695987328526400E-016, 3.061616997868189400E-019, 0.1225000000000000400 ) ) ;
#949 = FACE_OUTER_BOUND ( 'NONE', #220, .T. ) ;
ENDSEC;
END-ISO-10303-21;
