ISO-10303-21;
HEADER;
FILE_DESCRIPTION (( 'STEP AP214' ),
    '1' );
FILE_NAME ('small bracket ALU.STEP',
    '2014-10-01T18:06:58',
    ( '' ),
    ( '' ),
    'SwSTEP 2.0',
    'SolidWorks 2013',
    '' );
FILE_SCHEMA (( 'AUTOMOTIVE_DESIGN' ));
ENDSEC;

DATA;
#1 = ADVANCED_FACE ( 'NONE', ( #222 ), #129, .F. ) ;
#2 = ADVANCED_FACE ( 'NONE', ( #210, #290, #340 ), #513, .F. ) ;
#3 = VECTOR ( 'NONE', #250, 39.37007874015748100 ) ;
#4 = DIRECTION ( 'NONE',  ( -1.000000000000000000, 0.0000000000000000000, 0.0000000000000000000 ) ) ;
#5 = ADVANCED_FACE ( 'NONE', ( #357 ), #389, .F. ) ;
#6 = ADVANCED_FACE ( 'NONE', ( #308 ), #88, .T. ) ;
#7 = EDGE_CURVE ( 'NONE', #266, #87, #468, .T. ) ;
#8 = VERTEX_POINT ( 'NONE', #199 ) ;
#9 = CARTESIAN_POINT ( 'NONE',  ( 2.937500000000000000, 0.0000000000000000000, 0.0000000000000000000 ) ) ;
#10 = UNCERTAINTY_MEASURE_WITH_UNIT (LENGTH_MEASURE( 1.000000000000000100E-005 ), #123, 'distance_accuracy_value', 'NONE');
#11 = DIRECTION ( 'NONE',  ( -1.000000000000000000, -1.192988228709979300E-016, 0.0000000000000000000 ) ) ;
#12 =( GEOMETRIC_REPRESENTATION_CONTEXT ( 3 ) GLOBAL_UNCERTAINTY_ASSIGNED_CONTEXT ( ( #293 ) ) GLOBAL_UNIT_ASSIGNED_CONTEXT ( ( #173, #630, #421 ) ) REPRESENTATION_CONTEXT ( 'NONE', 'WORKASPACE' ) );
#13 = EDGE_CURVE ( 'NONE', #477, #266, #106, .T. ) ;
#14 = LINE ( 'NONE', #519, #635 ) ;
#15 = COLOUR_RGB ( '',0.7921568627450980000, 0.8196078431372548800, 0.9333333333333333500 ) ;
#16 = PRODUCT_DEFINITION ( 'UNKNOWN', '', #81, #392 ) ;
#17 = LINE ( 'NONE', #586, #56 ) ;
#18 = CARTESIAN_POINT ( 'NONE',  ( 2.937500000000000000, 0.0000000000000000000, 0.7500000000000001100 ) ) ;
#19 = VERTEX_POINT ( 'NONE', #585 ) ;
#20 = CARTESIAN_POINT ( 'NONE',  ( 0.1909448818897635200, -3.249999999999999600, 0.7500000000000001100 ) ) ;
#21 = EDGE_LOOP ( 'NONE', ( #160, #58, #523, #211 ) ) ;
#22 = AXIS2_PLACEMENT_3D ( 'NONE', #74, #11, #584 ) ;
#23 = SURFACE_SIDE_STYLE ('',( #82 ) ) ;
#24 = CARTESIAN_POINT ( 'NONE',  ( 0.1909448818897640200, -3.249999999999999600, 0.3750000000000000600 ) ) ;
#25 = CARTESIAN_POINT ( 'NONE',  ( 0.3784448818897636600, -3.249999999999999100, 0.0000000000000000000 ) ) ;
#26 = EDGE_LOOP ( 'NONE', ( #620, #125 ) ) ;
#27 = FACE_OUTER_BOUND ( 'NONE', #38, .T. ) ;
#28 = ORIENTED_EDGE ( 'NONE', *, *, #495, .T. ) ;
#29 = DIRECTION ( 'NONE',  ( -0.0000000000000000000, 1.000000000000000000, -0.0000000000000000000 ) ) ;
#30 = CARTESIAN_POINT ( 'NONE',  ( 0.0000000000000000000, 0.0000000000000000000, 0.0000000000000000000 ) ) ;
#31 = DIRECTION ( 'NONE',  ( 1.000000000000000000, 1.365923996832131900E-016, 0.0000000000000000000 ) ) ;
#32 = CARTESIAN_POINT ( 'NONE',  ( 0.1909448818897638300, -1.649999999999999900, 0.3750000000000000600 ) ) ;
#33 = ORIENTED_EDGE ( 'NONE', *, *, #395, .F. ) ;
#34 = CARTESIAN_POINT ( 'NONE',  ( 1.031594070000000100, 0.0000000000000000000, 0.3749999999999998900 ) ) ;
#35 = AXIS2_PLACEMENT_3D ( 'NONE', #262, #196, #134 ) ;
#36 = PRODUCT ( 'small bracket ALU', 'small bracket ALU', '', ( #610 ) ) ;
#37 = DIRECTION ( 'NONE',  ( 0.0000000000000000000, 0.0000000000000000000, 1.000000000000000000 ) ) ;
#38 = EDGE_LOOP ( 'NONE', ( #464, #637, #268, #260 ) ) ;
#39 = DIMENSIONAL_EXPONENTS ( 1.000000000000000000, 0.0000000000000000000, 0.0000000000000000000, 0.0000000000000000000, 0.0000000000000000000, 0.0000000000000000000, 0.0000000000000000000 ) ;
#40 = DIMENSIONAL_EXPONENTS ( 1.000000000000000000, 0.0000000000000000000, 0.0000000000000000000, 0.0000000000000000000, 0.0000000000000000000, 0.0000000000000000000, 0.0000000000000000000 ) ;
#41 = DIRECTION ( 'NONE',  ( 0.0000000000000000000, -1.000000000000000000, 0.0000000000000000000 ) ) ;
#42 = VECTOR ( 'NONE', #641, 39.37007874015748100 ) ;
#43 = VECTOR ( 'NONE', #76, 39.37007874015748100 ) ;
#44 = CARTESIAN_POINT ( 'NONE',  ( 0.1909448818897638300, -1.649999999999999900, 0.4576771653543304000 ) ) ;
#45 = PLANE ( 'NONE',  #550 ) ;
#46 =( CONVERSION_BASED_UNIT ( 'INCH', #380 ) LENGTH_UNIT ( ) NAMED_UNIT ( #40 ) );
#47 = ORIENTED_EDGE ( 'NONE', *, *, #13, .F. ) ;
#48 = FACE_OUTER_BOUND ( 'NONE', #167, .T. ) ;
#49 = CARTESIAN_POINT ( 'NONE',  ( 0.3784448818897636600, -0.1875000000000000300, 0.0000000000000000000 ) ) ;
#50 = EDGE_CURVE ( 'NONE', #246, #533, #14, .T. ) ;
#51 = COLOUR_RGB ( '',0.7921568627450980000, 0.8196078431372548800, 0.9333333333333333500 ) ;
#52 = AXIS2_PLACEMENT_3D ( 'NONE', #183, #640, #571 ) ;
#53 = SURFACE_SIDE_STYLE ('',( #118 ) ) ;
#54 = EDGE_CURVE ( 'NONE', #127, #298, #399, .T. ) ;
#55 = EDGE_CURVE ( 'NONE', #533, #216, #297, .T. ) ;
#56 = VECTOR ( 'NONE', #521, 39.37007874015748100 ) ;
#57 = ADVANCED_FACE ( 'NONE', ( #603 ), #270, .F. ) ;
#58 = ORIENTED_EDGE ( 'NONE', *, *, #240, .F. ) ;
#59 = DIRECTION ( 'NONE',  ( -0.0000000000000000000, 1.000000000000000000, -0.0000000000000000000 ) ) ;
#60 = CARTESIAN_POINT ( 'NONE',  ( 2.937500000000000000, 0.0000000000000000000, 0.7500000000000001100 ) ) ;
#61 = CIRCLE ( 'NONE', #352, 0.08267716535433035400 ) ;
#62 = CIRCLE ( 'NONE', #440, 0.3750000000000002200 ) ;
#63 = CARTESIAN_POINT ( 'NONE',  ( 0.1909448818897635800, 4.676369010713220400E-034, 0.0000000000000000000 ) ) ;
#64 = VERTEX_POINT ( 'NONE', #356 ) ;
#65 = SURFACE_SIDE_STYLE ('',( #126 ) ) ;
#66 = FACE_OUTER_BOUND ( 'NONE', #396, .T. ) ;
#67 = ORIENTED_EDGE ( 'NONE', *, *, #7, .F. ) ;
#68 = DIRECTION ( 'NONE',  ( -0.0000000000000000000, -0.0000000000000000000, -1.000000000000000000 ) ) ;
#69 =( LENGTH_UNIT ( ) NAMED_UNIT ( * ) SI_UNIT ( $, .METRE. ) );
#70 = CARTESIAN_POINT ( 'NONE',  ( 2.937500000000000000, 0.0000000000000000000, 0.7500000000000001100 ) ) ;
#71 = STYLED_ITEM ( 'NONE', ( #111 ), #193 ) ;
#72 = ORIENTED_EDGE ( 'NONE', *, *, #437, .F. ) ;
#73 = CARTESIAN_POINT ( 'NONE',  ( 2.622933070000000200, -0.1875000000000000300, 0.3750000000000000600 ) ) ;
#74 = CARTESIAN_POINT ( 'NONE',  ( 0.1909448818897635200, -3.249999999999999600, 0.3750000000000000600 ) ) ;
#75 = DIRECTION ( 'NONE',  ( 0.0000000000000000000, -1.000000000000000000, 0.0000000000000000000 ) ) ;
#76 = DIRECTION ( 'NONE',  ( -1.000000000000000000, -0.0000000000000000000, -0.0000000000000000000 ) ) ;
#77 = DIRECTION ( 'NONE',  ( -1.000000000000000000, 1.702630680840219000E-034, -0.0000000000000000000 ) ) ;
#78 = ORIENTED_EDGE ( 'NONE', *, *, #607, .T. ) ;
#79 = CARTESIAN_POINT ( 'NONE',  ( 1.031594070000000100, -9.642888182262621500E-018, 0.2765748031496062500 ) ) ;
#80 = VERTEX_POINT ( 'NONE', #289 ) ;
#81 = PRODUCT_DEFINITION_FORMATION_WITH_SPECIFIED_SOURCE ( 'ANY', '', #36, .NOT_KNOWN. ) ;
#82 = SURFACE_STYLE_FILL_AREA ( #142 ) ;
#83 = DIRECTION ( 'NONE',  ( 0.0000000000000000000, 0.0000000000000000000, 1.000000000000000000 ) ) ;
#84 = CARTESIAN_POINT ( 'NONE',  ( 0.1909448818897640000, -3.249999999999999600, 0.3750000000000000600 ) ) ;
#85 = ORIENTED_EDGE ( 'NONE', *, *, #152, .T. ) ;
#86 = AXIS2_PLACEMENT_3D ( 'NONE', #506, #333, #267 ) ;
#87 = VERTEX_POINT ( 'NONE', #221 ) ;
#88 = PLANE ( 'NONE',  #532 ) ;
#89 = APPLICATION_PROTOCOL_DEFINITION ( 'draft international standard', 'automotive_design', 1998, #103 ) ;
#90 = CARTESIAN_POINT ( 'NONE',  ( -5.665782421815471500, -3.250000000000000000, 0.3750000000000000600 ) ) ;
#91 = ORIENTED_EDGE ( 'NONE', *, *, #599, .T. ) ;
#92 = DIRECTION ( 'NONE',  ( -1.000000000000000000, 1.702630680840219000E-034, -0.0000000000000000000 ) ) ;
#93 = VECTOR ( 'NONE', #92, 39.37007874015748100 ) ;
#94 = EDGE_CURVE ( 'NONE', #642, #598, #504, .T. ) ;
#95 = DIRECTION ( 'NONE',  ( 0.0000000000000000000, 1.000000000000000000, 0.0000000000000000000 ) ) ;
#96 = ORIENTED_EDGE ( 'NONE', *, *, #546, .T. ) ;
#97 = EDGE_CURVE ( 'NONE', #8, #205, #609, .T. ) ;
#98 = DIRECTION ( 'NONE',  ( -1.000000000000000000, -1.159652530852687100E-016, 0.0000000000000000000 ) ) ;
#99 = PRESENTATION_LAYER_ASSIGNMENT (  '', '', ( #71 ) ) ;
#100 = MANIFOLD_SOLID_BREP ( 'Cut-Extrude1', #237 ) ;
#101 = EDGE_CURVE ( 'NONE', #186, #64, #411, .T. ) ;
#102 = EDGE_CURVE ( 'NONE', #231, #490, #618, .T. ) ;
#103 = APPLICATION_CONTEXT ( 'automotive_design' ) ;
#104 = STYLED_ITEM ( 'NONE', ( #217 ), #503 ) ;
#105 =( NAMED_UNIT ( * ) PLANE_ANGLE_UNIT ( ) SI_UNIT ( $, .RADIAN. ) );
#106 = CIRCLE ( 'NONE', #497, 0.08267716535433035400 ) ;
#107 = ORIENTED_EDGE ( 'NONE', *, *, #287, .T. ) ;
#108 = LINE ( 'NONE', #44, #576 ) ;
#109 = DIRECTION ( 'NONE',  ( 0.0000000000000000000, 0.0000000000000000000, 1.000000000000000000 ) ) ;
#110 = CIRCLE ( 'NONE', #251, 0.08267716535433035400 ) ;
#111 = PRESENTATION_STYLE_ASSIGNMENT (( #170 ) ) ;
#112 = PRODUCT_RELATED_PRODUCT_CATEGORY ( 'part', '', ( #36 ) ) ;
#113 = ORIENTED_EDGE ( 'NONE', *, *, #344, .T. ) ;
#114 = AXIS2_PLACEMENT_3D ( 'NONE', #34, #335, #269 ) ;
#115 = LINE ( 'NONE', #49, #372 ) ;
#116 =( NAMED_UNIT ( * ) SI_UNIT ( $, .STERADIAN. ) SOLID_ANGLE_UNIT ( ) );
#117 = MECHANICAL_DESIGN_GEOMETRIC_PRESENTATION_REPRESENTATION (  '', ( #71 ), #617 ) ;
#118 = SURFACE_STYLE_FILL_AREA ( #175 ) ;
#119 = PRESENTATION_LAYER_ASSIGNMENT (  '', '', ( #104 ) ) ;
#120 = EDGE_LOOP ( 'NONE', ( #67, #47, #480, #310 ) ) ;
#121 = CARTESIAN_POINT ( 'NONE',  ( 2.622933070000000200, 0.0000000000000000000, 0.2765748031496062500 ) ) ;
#122 = LINE ( 'NONE', #60, #412 ) ;
#123 =( CONVERSION_BASED_UNIT ( 'INCH', #622 ) LENGTH_UNIT ( ) NAMED_UNIT ( #39 ) );
#124 = LINE ( 'NONE', #63, #42 ) ;
#125 = ORIENTED_EDGE ( 'NONE', *, *, #94, .T. ) ;
#126 = SURFACE_STYLE_FILL_AREA ( #185 ) ;
#127 = VERTEX_POINT ( 'NONE', #407 ) ;
#128 = VECTOR ( 'NONE', #474, 39.37007874015748100 ) ;
#129 = PLANE ( 'NONE',  #259 ) ;
#130 = PRODUCT_DEFINITION_SHAPE ( 'NONE', 'NONE',  #16 ) ;
#131 = MECHANICAL_DESIGN_GEOMETRIC_PRESENTATION_REPRESENTATION (  '', ( #104 ), #520 ) ;
#132 = EDGE_LOOP ( 'NONE', ( #243, #184, #150, #510 ) ) ;
#133 = DIRECTION ( 'NONE',  ( 0.0000000000000000000, 0.0000000000000000000, 1.000000000000000000 ) ) ;
#134 = DIRECTION ( 'NONE',  ( 1.159652530852687100E-016, -1.000000000000000000, 0.0000000000000000000 ) ) ;
#135 = DIRECTION ( 'NONE',  ( -1.000000000000000000, -1.159652530852687100E-016, 0.0000000000000000000 ) ) ;
#136 = CARTESIAN_POINT ( 'NONE',  ( 0.1909448818897638300, -1.649999999999999900, 0.2923228346456696600 ) ) ;
#137 = CARTESIAN_POINT ( 'NONE',  ( 0.1909448818897635800, 4.676369010713220400E-034, 0.0000000000000000000 ) ) ;
#138 = ORIENTED_EDGE ( 'NONE', *, *, #500, .F. ) ;
#139 = CARTESIAN_POINT ( 'NONE',  ( 0.1909448818897638000, -1.649999999999999900, 0.4576771653543301200 ) ) ;
#140 = ORIENTED_EDGE ( 'NONE', *, *, #437, .T. ) ;
#141 = CYLINDRICAL_SURFACE ( 'NONE', #114, 0.09842519685039365100 ) ;
#142 = FILL_AREA_STYLE ('',( #206 ) ) ;
#143 = DIRECTION ( 'NONE',  ( -0.0000000000000000000, 1.000000000000000000, -0.0000000000000000000 ) ) ;
#144 = ADVANCED_FACE ( 'NONE', ( #48 ), #141, .F. ) ;
#145 = DIRECTION ( 'NONE',  ( 0.0000000000000000000, -1.000000000000000000, 0.0000000000000000000 ) ) ;
#146 = ORIENTED_EDGE ( 'NONE', *, *, #241, .F. ) ;
#147 = LENGTH_MEASURE_WITH_UNIT ( LENGTH_MEASURE( 0.02539999999999999900 ), #558 );
#148 = ADVANCED_FACE ( 'NONE', ( #66 ), #207, .F. ) ;
#149 = ADVANCED_FACE ( 'NONE', ( #455, #487, #525 ), #470, .F. ) ;
#150 = ORIENTED_EDGE ( 'NONE', *, *, #97, .T. ) ;
#151 = UNCERTAINTY_MEASURE_WITH_UNIT (LENGTH_MEASURE( 1.000000000000000100E-005 ), #349, 'distance_accuracy_value', 'NONE');
#152 = EDGE_CURVE ( 'NONE', #388, #444, #202, .T. ) ;
#153 = DIRECTION ( 'NONE',  ( 0.0000000000000000000, 0.0000000000000000000, 1.000000000000000000 ) ) ;
#154 = COLOUR_RGB ( '',0.7921568627450980000, 0.8196078431372548800, 0.9333333333333333500 ) ;
#155 = SHAPE_DEFINITION_REPRESENTATION ( #130, #503 ) ;
#156 = CARTESIAN_POINT ( 'NONE',  ( 2.622933070000000200, -0.1875000000000000300, 0.4734251968503938000 ) ) ;
#157 = CIRCLE ( 'NONE', #645, 0.09842519685039365100 ) ;
#158 =( NAMED_UNIT ( * ) PLANE_ANGLE_UNIT ( ) SI_UNIT ( $, .RADIAN. ) );
#159 = ORIENTED_EDGE ( 'NONE', *, *, #387, .T. ) ;
#160 = ORIENTED_EDGE ( 'NONE', *, *, #189, .T. ) ;
#161 = CARTESIAN_POINT ( 'NONE',  ( 0.1909448818897635800, 4.676369010713220400E-034, 0.7500000000000001100 ) ) ;
#162 = STYLED_ITEM ( 'NONE', ( #527 ), #148 ) ;
#163 = CARTESIAN_POINT ( 'NONE',  ( 2.622933070000000200, -0.1875000000000000300, 0.3750000000000000600 ) ) ;
#164 = EDGE_LOOP ( 'NONE', ( #560, #304 ) ) ;
#165 = CARTESIAN_POINT ( 'NONE',  ( 0.3784448818897637700, -1.649999999999999900, 0.3750000000000000600 ) ) ;
#166 = LENGTH_MEASURE_WITH_UNIT ( LENGTH_MEASURE( 0.02539999999999999900 ), #176 );
#167 = EDGE_LOOP ( 'NONE', ( #190, #113, #326, #486 ) ) ;
#168 = DIRECTION ( 'NONE',  ( -0.0000000000000000000, 1.000000000000000000, -0.0000000000000000000 ) ) ;
#169 = DIRECTION ( 'NONE',  ( 0.0000000000000000000, 1.000000000000000000, 0.0000000000000000000 ) ) ;
#170 = SURFACE_STYLE_USAGE ( .BOTH. , #228 ) ;
#171 = VECTOR ( 'NONE', #219, 39.37007874015748100 ) ;
#172 = ORIENTED_EDGE ( 'NONE', *, *, #387, .F. ) ;
#173 =( CONVERSION_BASED_UNIT ( 'INCH', #644 ) LENGTH_UNIT ( ) NAMED_UNIT ( #236 ) );
#174 = CARTESIAN_POINT ( 'NONE',  ( 0.1909448818897640000, -3.249999999999999600, 0.4576771653543304000 ) ) ;
#175 = FILL_AREA_STYLE ('',( #238 ) ) ;
#176 =( LENGTH_UNIT ( ) NAMED_UNIT ( * ) SI_UNIT ( $, .METRE. ) );
#177 = ORIENTED_EDGE ( 'NONE', *, *, #192, .F. ) ;
#178 = LINE ( 'NONE', #121, #473 ) ;
#179 = DIRECTION ( 'NONE',  ( 0.0000000000000000000, 0.0000000000000000000, 1.000000000000000000 ) ) ;
#180 = ORIENTED_EDGE ( 'NONE', *, *, #390, .F. ) ;
#181 = CARTESIAN_POINT ( 'NONE',  ( 1.031594070000000100, -9.642888182262621500E-018, 0.3749999999999998900 ) ) ;
#182 = AXIS2_PLACEMENT_3D ( 'NONE', #619, #544, #475 ) ;
#183 = CARTESIAN_POINT ( 'NONE',  ( 1.031594070000000100, -9.642888182262621500E-018, 0.3749999999999998900 ) ) ;
#184 = ORIENTED_EDGE ( 'NONE', *, *, #601, .T. ) ;
#185 = FILL_AREA_STYLE ('',( #253 ) ) ;
#186 = VERTEX_POINT ( 'NONE', #18 ) ;
#187 = AXIS2_PLACEMENT_3D ( 'NONE', #32, #613, #538 ) ;
#188 = ADVANCED_FACE ( 'NONE', ( #575 ), #509, .F. ) ;
#189 = EDGE_CURVE ( 'NONE', #19, #508, #378, .T. ) ;
#190 = ORIENTED_EDGE ( 'NONE', *, *, #495, .F. ) ;
#191 = EDGE_CURVE ( 'NONE', #444, #80, #124, .T. ) ;
#192 = EDGE_CURVE ( 'NONE', #216, #533, #556, .T. ) ;
#193 = ADVANCED_FACE ( 'NONE', ( #27 ), #633, .F. ) ;
#194 = EDGE_LOOP ( 'NONE', ( #255, #382 ) ) ;
#195 = DIRECTION ( 'NONE',  ( -1.000000000000000000, -0.0000000000000000000, -0.0000000000000000000 ) ) ;
#196 = DIRECTION ( 'NONE',  ( -1.000000000000000000, -1.159652530852687100E-016, 0.0000000000000000000 ) ) ;
#197 = COLOUR_RGB ( '',0.7921568627450980000, 0.8196078431372548800, 0.9333333333333333500 ) ;
#198 = UNCERTAINTY_MEASURE_WITH_UNIT (LENGTH_MEASURE( 1.000000000000000100E-005 ), #636, 'distance_accuracy_value', 'NONE');
#199 = CARTESIAN_POINT ( 'NONE',  ( 0.1909448818897638000, -1.649999999999999900, 0.2923228346456699400 ) ) ;
#200 = CIRCLE ( 'NONE', #182, 0.08267716535433035400 ) ;
#201 = LINE ( 'NONE', #136, #43 ) ;
#202 = LINE ( 'NONE', #137, #591 ) ;
#203 = VERTEX_POINT ( 'NONE', #204 ) ;
#204 = CARTESIAN_POINT ( 'NONE',  ( 1.031594070000000100, -0.1875000000000000300, 0.2765748031496062500 ) ) ;
#205 = VERTEX_POINT ( 'NONE', #139 ) ;
#206 = FILL_AREA_STYLE_COLOUR ( '', #449 ) ;
#207 = CYLINDRICAL_SURFACE ( 'NONE', #187, 0.08267716535433035400 ) ;
#208 = DIRECTION ( 'NONE',  ( -1.000000000000000000, -1.159652530852687100E-016, 0.0000000000000000000 ) ) ;
#209 = EDGE_LOOP ( 'NONE', ( #577, #258, #224, #472 ) ) ;
#210 = FACE_BOUND ( 'NONE', #368, .T. ) ;
#211 = ORIENTED_EDGE ( 'NONE', *, *, #291, .T. ) ;
#212 = AXIS2_PLACEMENT_3D ( 'NONE', #624, #554, #482 ) ;
#213 = DIRECTION ( 'NONE',  ( -1.000000000000000000, -0.0000000000000000000, -0.0000000000000000000 ) ) ;
#214 = DIRECTION ( 'NONE',  ( -1.000000000000000000, 0.0000000000000000000, -0.0000000000000000000 ) ) ;
#215 = AXIS2_PLACEMENT_3D ( 'NONE', #261, #195, #133 ) ;
#216 = VERTEX_POINT ( 'NONE', #79 ) ;
#217 = PRESENTATION_STYLE_ASSIGNMENT (( #283 ) ) ;
#218 = EDGE_LOOP ( 'NONE', ( #334, #453, #545, #604 ) ) ;
#219 = DIRECTION ( 'NONE',  ( -0.0000000000000000000, -0.0000000000000000000, -1.000000000000000000 ) ) ;
#220 = ORIENTED_EDGE ( 'NONE', *, *, #446, .T. ) ;
#221 = CARTESIAN_POINT ( 'NONE',  ( 0.1909448818897640000, -3.249999999999999600, 0.2923228346456696600 ) ) ;
#222 = FACE_OUTER_BOUND ( 'NONE', #351, .T. ) ;
#223 =( NAMED_UNIT ( * ) SI_UNIT ( $, .STERADIAN. ) SOLID_ANGLE_UNIT ( ) );
#224 = ORIENTED_EDGE ( 'NONE', *, *, #50, .T. ) ;
#225 = CARTESIAN_POINT ( 'NONE',  ( 2.937500000000000000, 0.0000000000000000000, 0.0000000000000000000 ) ) ;
#226 = CARTESIAN_POINT ( 'NONE',  ( 1.031594070000000100, -0.1875000000000000300, 0.3749999999999998900 ) ) ;
#227 =( LENGTH_UNIT ( ) NAMED_UNIT ( * ) SI_UNIT ( $, .METRE. ) );
#228 = SURFACE_SIDE_STYLE ('',( #301 ) ) ;
#229 = AXIS2_PLACEMENT_3D ( 'NONE', #73, #583, #517 ) ;
#230 = EDGE_LOOP ( 'NONE', ( #379, #573, #448, #410, #526, #140 ) ) ;
#231 = VERTEX_POINT ( 'NONE', #20 ) ;
#232 = CARTESIAN_POINT ( 'NONE',  ( 1.031594070000000100, -0.1875000000000000300, 0.4734251968503935300 ) ) ;
#233 = AXIS2_PLACEMENT_3D ( 'NONE', #181, #143, #83 ) ;
#234 = DIMENSIONAL_EXPONENTS ( 1.000000000000000000, 0.0000000000000000000, 0.0000000000000000000, 0.0000000000000000000, 0.0000000000000000000, 0.0000000000000000000, 0.0000000000000000000 ) ;
#235 = EDGE_CURVE ( 'NONE', #490, #313, #590, .T. ) ;
#236 = DIMENSIONAL_EXPONENTS ( 1.000000000000000000, 0.0000000000000000000, 0.0000000000000000000, 0.0000000000000000000, 0.0000000000000000000, 0.0000000000000000000, 0.0000000000000000000 ) ;
#237 = CLOSED_SHELL ( 'NONE', ( #144, #188, #5, #193, #553, #6, #2, #149, #492, #551, #1, #57, #148, #288, #498, #596 ) ) ;
#238 = FILL_AREA_STYLE_COLOUR ( '', #51 ) ;
#239 = VECTOR ( 'NONE', #454, 39.37007874015748100 ) ;
#240 = EDGE_CURVE ( 'NONE', #426, #508, #319, .T. ) ;
#241 = EDGE_CURVE ( 'NONE', #426, #186, #647, .T. ) ;
#242 = EDGE_CURVE ( 'NONE', #313, #426, #435, .T. ) ;
#243 = ORIENTED_EDGE ( 'NONE', *, *, #94, .F. ) ;
#244 = DIRECTION ( 'NONE',  ( -0.0000000000000000000, -0.0000000000000000000, -1.000000000000000000 ) ) ;
#245 = DIRECTION ( 'NONE',  ( -0.0000000000000000000, 1.000000000000000000, -0.0000000000000000000 ) ) ;
#246 = VERTEX_POINT ( 'NONE', #232 ) ;
#247 = CIRCLE ( 'NONE', #562, 0.09842519685039379000 ) ;
#248 = DIRECTION ( 'NONE',  ( 0.0000000000000000000, 0.0000000000000000000, 1.000000000000000000 ) ) ;
#249 = CIRCLE ( 'NONE', #22, 0.3750000000000002200 ) ;
#250 = DIRECTION ( 'NONE',  ( 1.000000000000000000, 0.0000000000000000000, 0.0000000000000000000 ) ) ;
#251 = AXIS2_PLACEMENT_3D ( 'NONE', #409, #208, #145 ) ;
#252 = ORIENTED_EDGE ( 'NONE', *, *, #291, .F. ) ;
#253 = FILL_AREA_STYLE_COLOUR ( '', #154 ) ;
#254 = CARTESIAN_POINT ( 'NONE',  ( 2.937500000000000000, -0.1875000000000000300, 0.7500000000000001100 ) ) ;
#255 = ORIENTED_EDGE ( 'NONE', *, *, #295, .F. ) ;
#256 = AXIS2_PLACEMENT_3D ( 'NONE', #24, #493, #423 ) ;
#257 = PRESENTATION_STYLE_ASSIGNMENT (( #321 ) ) ;
#258 = ORIENTED_EDGE ( 'NONE', *, *, #549, .F. ) ;
#259 = AXIS2_PLACEMENT_3D ( 'NONE', #70, #4, #579 ) ;
#260 = ORIENTED_EDGE ( 'NONE', *, *, #341, .F. ) ;
#261 = CARTESIAN_POINT ( 'NONE',  ( 0.1909448818897638000, -1.649999999999999900, 0.3750000000000000600 ) ) ;
#262 = CARTESIAN_POINT ( 'NONE',  ( 0.3784448818897636600, -0.1875000000000000300, 0.7500000000000001100 ) ) ;
#263 = CARTESIAN_POINT ( 'NONE',  ( 0.3784448818897640000, -3.249999999999999600, 0.3750000000000000600 ) ) ;
#264 = CARTESIAN_POINT ( 'NONE',  ( 0.3784448818897637700, -1.649999999999999900, 0.2923228346456696600 ) ) ;
#265 = DIRECTION ( 'NONE',  ( -1.192988228709979300E-016, 1.000000000000000000, 0.0000000000000000000 ) ) ;
#266 = VERTEX_POINT ( 'NONE', #381 ) ;
#267 = DIRECTION ( 'NONE',  ( 0.0000000000000000000, 0.0000000000000000000, 1.000000000000000000 ) ) ;
#268 = ORIENTED_EDGE ( 'NONE', *, *, #345, .T. ) ;
#269 = DIRECTION ( 'NONE',  ( 0.0000000000000000000, 0.0000000000000000000, 1.000000000000000000 ) ) ;
#270 = CYLINDRICAL_SURFACE ( 'NONE', #256, 0.08267716535433061700 ) ;
#271 = CARTESIAN_POINT ( 'NONE',  ( 0.3784448818897636600, -0.1875000000000000300, 0.7500000000000001100 ) ) ;
#272 = ORIENTED_EDGE ( 'NONE', *, *, #338, .F. ) ;
#273 = AXIS2_PLACEMENT_3D ( 'NONE', #438, #370, #309 ) ;
#274 = FACE_OUTER_BOUND ( 'NONE', #376, .T. ) ;
#275 = EDGE_LOOP ( 'NONE', ( #277, #415, #91, #629 ) ) ;
#276 = CARTESIAN_POINT ( 'NONE',  ( 0.1909448818897638300, -1.649999999999999900, 0.3750000000000000600 ) ) ;
#277 = ORIENTED_EDGE ( 'NONE', *, *, #294, .F. ) ;
#278 = CARTESIAN_POINT ( 'NONE',  ( 0.3784448818897636600, -3.249999999999999100, 0.7500000000000001100 ) ) ;
#279 = DIRECTION ( 'NONE',  ( 0.0000000000000000000, 0.0000000000000000000, -1.000000000000000000 ) ) ;
#280 =( NAMED_UNIT ( * ) SI_UNIT ( $, .STERADIAN. ) SOLID_ANGLE_UNIT ( ) );
#281 = VECTOR ( 'NONE', #462, 39.37007874015748100 ) ;
#282 = VERTEX_POINT ( 'NONE', #174 ) ;
#283 = SURFACE_STYLE_USAGE ( .BOTH. , #353 ) ;
#284 = ORIENTED_EDGE ( 'NONE', *, *, #55, .F. ) ;
#285 = PRESENTATION_LAYER_ASSIGNMENT (  '', '', ( #623 ) ) ;
#286 = CARTESIAN_POINT ( 'NONE',  ( 0.3784448818897636600, -0.1875000000000000300, 0.7500000000000001100 ) ) ;
#287 = EDGE_CURVE ( 'NONE', #339, #19, #115, .T. ) ;
#288 = ADVANCED_FACE ( 'NONE', ( #274 ), #342, .F. ) ;
#289 = CARTESIAN_POINT ( 'NONE',  ( 0.1909448818897639700, -3.249999999999999600, 0.0000000000000000000 ) ) ;
#290 = FACE_BOUND ( 'NONE', #457, .T. ) ;
#291 = EDGE_CURVE ( 'NONE', #313, #19, #355, .T. ) ;
#292 = VECTOR ( 'NONE', #68, 39.37007874015748100 ) ;
#293 = UNCERTAINTY_MEASURE_WITH_UNIT (LENGTH_MEASURE( 1.000000000000000100E-005 ), #173, 'distance_accuracy_value', 'NONE');
#294 = EDGE_CURVE ( 'NONE', #420, #582, #247, .T. ) ;
#295 = EDGE_CURVE ( 'NONE', #282, #87, #200, .T. ) ;
#296 =( CONVERSION_BASED_UNIT ( 'INCH', #441 ) LENGTH_UNIT ( ) NAMED_UNIT ( #463 ) );
#297 = CIRCLE ( 'NONE', #233, 0.09842519685039365100 ) ;
#298 = VERTEX_POINT ( 'NONE', #337 ) ;
#299 = LINE ( 'NONE', #225, #542 ) ;
#300 = DIRECTION ( 'NONE',  ( 1.821231995776174500E-016, -1.000000000000000000, 0.0000000000000000000 ) ) ;
#301 = SURFACE_STYLE_FILL_AREA ( #363 ) ;
#302 = AXIS2_PLACEMENT_3D ( 'NONE', #84, #605, #534 ) ;
#303 = ORIENTED_EDGE ( 'NONE', *, *, #398, .F. ) ;
#304 = ORIENTED_EDGE ( 'NONE', *, *, #385, .T. ) ;
#305 = DIRECTION ( 'NONE',  ( 1.000000000000000000, 0.0000000000000000000, 0.0000000000000000000 ) ) ;
#306 = MECHANICAL_DESIGN_GEOMETRIC_PRESENTATION_REPRESENTATION (  '', ( #623 ), #359 ) ;
#307 =( NAMED_UNIT ( * ) PLANE_ANGLE_UNIT ( ) SI_UNIT ( $, .RADIAN. ) );
#308 = FACE_OUTER_BOUND ( 'NONE', #589, .T. ) ;
#309 = DIRECTION ( 'NONE',  ( 1.000000000000000000, -1.702630680840219400E-034, 0.0000000000000000000 ) ) ;
#310 = ORIENTED_EDGE ( 'NONE', *, *, #295, .T. ) ;
#311 = CARTESIAN_POINT ( 'NONE',  ( 0.1909448818897635800, 4.676369010713220400E-034, 0.7500000000000001100 ) ) ;
#312 = CARTESIAN_POINT ( 'NONE',  ( 1.031594070000000100, 0.0000000000000000000, 0.3749999999999998900 ) ) ;
#313 = VERTEX_POINT ( 'NONE', #271 ) ;
#314 = DIRECTION ( 'NONE',  ( -0.0000000000000000000, 1.000000000000000000, -0.0000000000000000000 ) ) ;
#315 =( LENGTH_UNIT ( ) NAMED_UNIT ( * ) SI_UNIT ( $, .METRE. ) );
#316 = CARTESIAN_POINT ( 'NONE',  ( 0.3784448818897636600, -0.1875000000000000300, 0.0000000000000000000 ) ) ;
#317 = ORIENTED_EDGE ( 'NONE', *, *, #439, .F. ) ;
#318 = VECTOR ( 'NONE', #29, 39.37007874015748100 ) ;
#319 = LINE ( 'NONE', #254, #292 ) ;
#320 = ORIENTED_EDGE ( 'NONE', *, *, #54, .T. ) ;
#321 = SURFACE_STYLE_USAGE ( .BOTH. , #383 ) ;
#322 = CARTESIAN_POINT ( 'NONE',  ( 1.031594070000000100, 0.0000000000000000000, 0.2765748031496062500 ) ) ;
#323 = ORIENTED_EDGE ( 'NONE', *, *, #390, .T. ) ;
#324 = AXIS2_PLACEMENT_3D ( 'NONE', #276, #213, #153 ) ;
#325 = VECTOR ( 'NONE', #511, 39.37007874015748100 ) ;
#326 = ORIENTED_EDGE ( 'NONE', *, *, #192, .T. ) ;
#327 = DIRECTION ( 'NONE',  ( 0.0000000000000000000, -1.000000000000000000, 0.0000000000000000000 ) ) ;
#328 = PLANE ( 'NONE',  #35 ) ;
#329 = DIRECTION ( 'NONE',  ( -1.000000000000000000, -0.0000000000000000000, -0.0000000000000000000 ) ) ;
#330 = DIRECTION ( 'NONE',  ( 0.0000000000000000000, 0.0000000000000000000, 1.000000000000000000 ) ) ;
#331 = DIRECTION ( 'NONE',  ( 1.000000000000000000, 1.192988228709979300E-016, -0.0000000000000000000 ) ) ;
#332 = EDGE_LOOP ( 'NONE', ( #360, #28 ) ) ;
#333 = DIRECTION ( 'NONE',  ( -1.000000000000000000, -0.0000000000000000000, -0.0000000000000000000 ) ) ;
#334 = ORIENTED_EDGE ( 'NONE', *, *, #494, .F. ) ;
#335 = DIRECTION ( 'NONE',  ( -0.0000000000000000000, 1.000000000000000000, -0.0000000000000000000 ) ) ;
#336 = LENGTH_MEASURE_WITH_UNIT ( LENGTH_MEASURE( 0.02539999999999999900 ), #69 );
#337 = CARTESIAN_POINT ( 'NONE',  ( 2.622933070000000200, -9.642888182262621500E-018, 0.2765748031496062500 ) ) ;
#338 = EDGE_CURVE ( 'NONE', #598, #642, #110, .T. ) ;
#339 = VERTEX_POINT ( 'NONE', #25 ) ;
#340 = FACE_OUTER_BOUND ( 'NONE', #615, .T. ) ;
#341 = EDGE_CURVE ( 'NONE', #477, #282, #597, .T. ) ;
#342 = CYLINDRICAL_SURFACE ( 'NONE', #414, 0.09842519685039379000 ) ;
#343 = ORIENTED_EDGE ( 'NONE', *, *, #599, .F. ) ;
#344 = EDGE_CURVE ( 'NONE', #203, #216, #386, .T. ) ;
#345 = EDGE_CURVE ( 'NONE', #87, #282, #346, .T. ) ;
#346 = CIRCLE ( 'NONE', #302, 0.08267716535433035400 ) ;
#347 = DIRECTION ( 'NONE',  ( -1.000000000000000000, -1.365923996832131900E-016, -0.0000000000000000000 ) ) ;
#348 = CARTESIAN_POINT ( 'NONE',  ( 0.0000000000000000000, 0.0000000000000000000, 0.7500000000000001100 ) ) ;
#349 =( CONVERSION_BASED_UNIT ( 'INCH', #147 ) LENGTH_UNIT ( ) NAMED_UNIT ( #234 ) );
#350 = MECHANICAL_DESIGN_GEOMETRIC_PRESENTATION_REPRESENTATION (  '', ( #162 ), #430 ) ;
#351 = EDGE_LOOP ( 'NONE', ( #540, #138, #146, #354 ) ) ;
#352 = AXIS2_PLACEMENT_3D ( 'NONE', #467, #397, #327 ) ;
#353 = SURFACE_SIDE_STYLE ('',( #419 ) ) ;
#354 = ORIENTED_EDGE ( 'NONE', *, *, #240, .T. ) ;
#355 = LINE ( 'NONE', #286, #171 ) ;
#356 = CARTESIAN_POINT ( 'NONE',  ( 0.1909448818897635800, 4.676369010713220400E-034, 0.7500000000000001100 ) ) ;
#357 = FACE_OUTER_BOUND ( 'NONE', #132, .T. ) ;
#358 = VECTOR ( 'NONE', #305, 39.37007874015748100 ) ;
#359 =( GEOMETRIC_REPRESENTATION_CONTEXT ( 3 ) GLOBAL_UNCERTAINTY_ASSIGNED_CONTEXT ( ( #600 ) ) GLOBAL_UNIT_ASSIGNED_CONTEXT ( ( #512, #307, #116 ) ) REPRESENTATION_CONTEXT ( 'NONE', 'WORKASPACE' ) );
#360 = ORIENTED_EDGE ( 'NONE', *, *, #549, .T. ) ;
#361 = CARTESIAN_POINT ( 'NONE',  ( 0.3784448818897640000, -3.249999999999999600, 0.4576771653543306700 ) ) ;
#362 = DIRECTION ( 'NONE',  ( 1.000000000000000000, 1.159652530852687100E-016, -0.0000000000000000000 ) ) ;
#363 = FILL_AREA_STYLE ('',( #429 ) ) ;
#364 =( NAMED_UNIT ( * ) SI_UNIT ( $, .STERADIAN. ) SOLID_ANGLE_UNIT ( ) );
#365 = FACE_BOUND ( 'NONE', #164, .T. ) ;
#366 = ORIENTED_EDGE ( 'NONE', *, *, #494, .T. ) ;
#367 =( LENGTH_UNIT ( ) NAMED_UNIT ( * ) SI_UNIT ( $, .METRE. ) );
#368 = EDGE_LOOP ( 'NONE', ( #284, #177 ) ) ;
#369 = CARTESIAN_POINT ( 'NONE',  ( 0.3784448818897636600, -0.1875000000000000300, 0.7500000000000001100 ) ) ;
#370 = DIRECTION ( 'NONE',  ( -1.702630680840219400E-034, -1.000000000000000000, 0.0000000000000000000 ) ) ;
#371 = AXIS2_PLACEMENT_3D ( 'NONE', #377, #314, #248 ) ;
#372 = VECTOR ( 'NONE', #632, 39.37007874015748100 ) ;
#373 = ORIENTED_EDGE ( 'NONE', *, *, #500, .T. ) ;
#374 = LINE ( 'NONE', #311, #433 ) ;
#375 = DIRECTION ( 'NONE',  ( 0.0000000000000000000, 0.0000000000000000000, 1.000000000000000000 ) ) ;
#376 = EDGE_LOOP ( 'NONE', ( #303, #180, #78, #320 ) ) ;
#377 = CARTESIAN_POINT ( 'NONE',  ( 2.622933070000000200, -9.642888182262621500E-018, 0.3750000000000000600 ) ) ;
#378 = LINE ( 'NONE', #316, #3 ) ;
#379 = ORIENTED_EDGE ( 'NONE', *, *, #102, .T. ) ;
#380 = LENGTH_MEASURE_WITH_UNIT ( LENGTH_MEASURE( 0.02539999999999999900 ), #227 );
#381 = CARTESIAN_POINT ( 'NONE',  ( 0.3784448818897640000, -3.249999999999999600, 0.2923228346456693800 ) ) ;
#382 = ORIENTED_EDGE ( 'NONE', *, *, #345, .F. ) ;
#383 = SURFACE_SIDE_STYLE ('',( #458 ) ) ;
#384 = PRESENTATION_LAYER_ASSIGNMENT (  '', '', ( #459 ) ) ;
#385 = EDGE_CURVE ( 'NONE', #266, #477, #61, .T. ) ;
#386 = LINE ( 'NONE', #322, #318 ) ;
#387 = EDGE_CURVE ( 'NONE', #205, #8, #611, .T. ) ;
#388 = VERTEX_POINT ( 'NONE', #9 ) ;
#389 = CYLINDRICAL_SURFACE ( 'NONE', #324, 0.08267716535433035400 ) ;
#390 = EDGE_CURVE ( 'NONE', #582, #420, #507, .T. ) ;
#391 = AXIS2_PLACEMENT_3D ( 'NONE', #226, #169, #109 ) ;
#392 = PRODUCT_DEFINITION_CONTEXT ( 'detailed design', #606, 'design' ) ;
#393 = PRESENTATION_LAYER_ASSIGNMENT (  '', '', ( #481 ) ) ;
#394 = FACE_OUTER_BOUND ( 'NONE', #209, .T. ) ;
#395 = EDGE_CURVE ( 'NONE', #64, #444, #374, .T. ) ;
#396 = EDGE_LOOP ( 'NONE', ( #405, #272, #516, #159 ) ) ;
#397 = DIRECTION ( 'NONE',  ( -1.000000000000000000, -1.159652530852687100E-016, 0.0000000000000000000 ) ) ;
#398 = EDGE_CURVE ( 'NONE', #420, #298, #178, .T. ) ;
#399 = CIRCLE ( 'NONE', #371, 0.09842519685039379000 ) ;
#400 = CARTESIAN_POINT ( 'NONE',  ( 0.1909448818897640200, -3.249999999999999600, 0.2923228346456693800 ) ) ;
#401 = EDGE_LOOP ( 'NONE', ( #418, #366, #72, #539 ) ) ;
#402 = CIRCLE ( 'NONE', #391, 0.09842519685039365100 ) ;
#403 = DIRECTION ( 'NONE',  ( -0.0000000000000000000, 1.000000000000000000, -0.0000000000000000000 ) ) ;
#404 = CARTESIAN_POINT ( 'NONE',  ( 0.1909448818897635800, 4.676369010713220400E-034, 0.7500000000000001100 ) ) ;
#405 = ORIENTED_EDGE ( 'NONE', *, *, #601, .F. ) ;
#406 = ORIENTED_EDGE ( 'NONE', *, *, #54, .F. ) ;
#407 = CARTESIAN_POINT ( 'NONE',  ( 2.622933070000000200, -9.642888182262621500E-018, 0.4734251968503938000 ) ) ;
#408 = AXIS2_PLACEMENT_3D ( 'NONE', #621, #547, #478 ) ;
#409 = CARTESIAN_POINT ( 'NONE',  ( 0.3784448818897637700, -1.649999999999999900, 0.3750000000000000600 ) ) ;
#410 = ORIENTED_EDGE ( 'NONE', *, *, #241, .T. ) ;
#411 = LINE ( 'NONE', #161, #93 ) ;
#412 = VECTOR ( 'NONE', #639, 39.37007874015748100 ) ;
#413 = MECHANICAL_DESIGN_GEOMETRIC_PRESENTATION_REPRESENTATION (  '', ( #481 ), #588 ) ;
#414 = AXIS2_PLACEMENT_3D ( 'NONE', #565, #491, #422 ) ;
#415 = ORIENTED_EDGE ( 'NONE', *, *, #398, .T. ) ;
#416 = CARTESIAN_POINT ( 'NONE',  ( -5.665782421815471500, -3.250000000000000000, 0.0000000000000000000 ) ) ;
#417 = PLANE ( 'NONE',  #567 ) ;
#418 = ORIENTED_EDGE ( 'NONE', *, *, #191, .T. ) ;
#419 = SURFACE_STYLE_FILL_AREA ( #488 ) ;
#420 = VERTEX_POINT ( 'NONE', #445 ) ;
#421 =( NAMED_UNIT ( * ) SI_UNIT ( $, .STERADIAN. ) SOLID_ANGLE_UNIT ( ) );
#422 = DIRECTION ( 'NONE',  ( 0.0000000000000000000, 0.0000000000000000000, 1.000000000000000000 ) ) ;
#423 = DIRECTION ( 'NONE',  ( 0.0000000000000000000, 0.0000000000000000000, 1.000000000000000000 ) ) ;
#424 = FACE_BOUND ( 'NONE', #332, .T. ) ;
#425 =( NAMED_UNIT ( * ) PLANE_ANGLE_UNIT ( ) SI_UNIT ( $, .RADIAN. ) );
#426 = VERTEX_POINT ( 'NONE', #638 ) ;
#427 = DIRECTION ( 'NONE',  ( 1.192988228709979300E-016, -1.000000000000000000, 0.0000000000000000000 ) ) ;
#428 = CARTESIAN_POINT ( 'NONE',  ( 0.3784448818897636600, -3.249999999999999100, 0.3750000000000000600 ) ) ;
#429 = FILL_AREA_STYLE_COLOUR ( '', #15 ) ;
#430 =( GEOMETRIC_REPRESENTATION_CONTEXT ( 3 ) GLOBAL_UNCERTAINTY_ASSIGNED_CONTEXT ( ( #442 ) ) GLOBAL_UNIT_ASSIGNED_CONTEXT ( ( #46, #485, #280 ) ) REPRESENTATION_CONTEXT ( 'NONE', 'WORKASPACE' ) );
#431 = AXIS2_PLACEMENT_3D ( 'NONE', #404, #331, #265 ) ;
#432 = EDGE_LOOP ( 'NONE', ( #592, #96, #107, #252 ) ) ;
#433 = VECTOR ( 'NONE', #244, 39.37007874015748100 ) ;
#434 = ORIENTED_EDGE ( 'NONE', *, *, #191, .F. ) ;
#435 = LINE ( 'NONE', #369, #358 ) ;
#436 = AXIS2_PLACEMENT_3D ( 'NONE', #165, #98, #41 ) ;
#437 = EDGE_CURVE ( 'NONE', #64, #231, #569, .T. ) ;
#438 = CARTESIAN_POINT ( 'NONE',  ( 0.1909448818897635800, 4.676369010713220400E-034, 0.7500000000000001100 ) ) ;
#439 = EDGE_CURVE ( 'NONE', #508, #388, #299, .T. ) ;
#440 = AXIS2_PLACEMENT_3D ( 'NONE', #428, #362, #300 ) ;
#441 = LENGTH_MEASURE_WITH_UNIT ( LENGTH_MEASURE( 0.02539999999999999900 ), #499 );
#442 = UNCERTAINTY_MEASURE_WITH_UNIT (LENGTH_MEASURE( 1.000000000000000100E-005 ), #46, 'distance_accuracy_value', 'NONE');
#443 = EDGE_CURVE ( 'NONE', #598, #205, #108, .T. ) ;
#444 = VERTEX_POINT ( 'NONE', #555 ) ;
#445 = CARTESIAN_POINT ( 'NONE',  ( 2.622933070000000200, -0.1875000000000000300, 0.2765748031496062500 ) ) ;
#446 = EDGE_CURVE ( 'NONE', #339, #80, #483, .T. ) ;
#447 = DIRECTION ( 'NONE',  ( 0.0000000000000000000, 1.000000000000000000, 0.0000000000000000000 ) ) ;
#448 = ORIENTED_EDGE ( 'NONE', *, *, #242, .T. ) ;
#449 = COLOUR_RGB ( '',0.7921568627450980000, 0.8196078431372548800, 0.9333333333333333500 ) ;
#450 = DIRECTION ( 'NONE',  ( -0.0000000000000000000, 1.000000000000000000, -0.0000000000000000000 ) ) ;
#451 = CIRCLE ( 'NONE', #602, 0.09842519685039379000 ) ;
#452 = DIRECTION ( 'NONE',  ( 0.0000000000000000000, 0.0000000000000000000, 1.000000000000000000 ) ) ;
#453 = ORIENTED_EDGE ( 'NONE', *, *, #446, .F. ) ;
#454 = DIRECTION ( 'NONE',  ( -1.159652530852687100E-016, 1.000000000000000000, -0.0000000000000000000 ) ) ;
#455 = FACE_BOUND ( 'NONE', #501, .T. ) ;
#456 = CYLINDRICAL_SURFACE ( 'NONE', #564, 0.09842519685039365100 ) ;
#457 = EDGE_LOOP ( 'NONE', ( #406, #343 ) ) ;
#458 = SURFACE_STYLE_FILL_AREA ( #528 ) ;
#459 = STYLED_ITEM ( 'NONE', ( #574 ), #100 ) ;
#460 = DIMENSIONAL_EXPONENTS ( 1.000000000000000000, 0.0000000000000000000, 0.0000000000000000000, 0.0000000000000000000, 0.0000000000000000000, 0.0000000000000000000, 0.0000000000000000000 ) ;
#461 = DIMENSIONAL_EXPONENTS ( 1.000000000000000000, 0.0000000000000000000, 0.0000000000000000000, 0.0000000000000000000, 0.0000000000000000000, 0.0000000000000000000, 0.0000000000000000000 ) ;
#462 = DIRECTION ( 'NONE',  ( -1.000000000000000000, -0.0000000000000000000, -0.0000000000000000000 ) ) ;
#463 = DIMENSIONAL_EXPONENTS ( 1.000000000000000000, 0.0000000000000000000, 0.0000000000000000000, 0.0000000000000000000, 0.0000000000000000000, 0.0000000000000000000, 0.0000000000000000000 ) ;
#464 = ORIENTED_EDGE ( 'NONE', *, *, #385, .F. ) ;
#465 = FACE_BOUND ( 'NONE', #646, .T. ) ;
#466 = ORIENTED_EDGE ( 'NONE', *, *, #152, .F. ) ;
#467 = CARTESIAN_POINT ( 'NONE',  ( 0.3784448818897640000, -3.249999999999999600, 0.3750000000000000600 ) ) ;
#468 = LINE ( 'NONE', #400, #581 ) ;
#469 = CARTESIAN_POINT ( 'NONE',  ( 2.622933070000000200, -9.642888182262621500E-018, 0.3750000000000000600 ) ) ;
#470 = PLANE ( 'NONE',  #431 ) ;
#471 = ORIENTED_EDGE ( 'NONE', *, *, #97, .F. ) ;
#472 = ORIENTED_EDGE ( 'NONE', *, *, #55, .T. ) ;
#473 = VECTOR ( 'NONE', #59, 39.37007874015748100 ) ;
#474 = DIRECTION ( 'NONE',  ( 1.000000000000000000, 1.365923996832131900E-016, 0.0000000000000000000 ) ) ;
#475 = DIRECTION ( 'NONE',  ( 0.0000000000000000000, 0.0000000000000000000, 1.000000000000000000 ) ) ;
#476 = PRESENTATION_LAYER_ASSIGNMENT (  '', '', ( #162 ) ) ;
#477 = VERTEX_POINT ( 'NONE', #361 ) ;
#478 = DIRECTION ( 'NONE',  ( 0.0000000000000000000, 0.0000000000000000000, 1.000000000000000000 ) ) ;
#479 = AXIS2_PLACEMENT_3D ( 'NONE', #90, #31, #612 ) ;
#480 = ORIENTED_EDGE ( 'NONE', *, *, #341, .T. ) ;
#481 = STYLED_ITEM ( 'NONE', ( #566 ), #5 ) ;
#482 = DIRECTION ( 'NONE',  ( 1.000000000000000000, 0.0000000000000000000, 0.0000000000000000000 ) ) ;
#483 = LINE ( 'NONE', #416, #593 ) ;
#484 = DIRECTION ( 'NONE',  ( 0.0000000000000000000, -0.0000000000000000000, 1.000000000000000000 ) ) ;
#485 =( NAMED_UNIT ( * ) PLANE_ANGLE_UNIT ( ) SI_UNIT ( $, .RADIAN. ) );
#486 = ORIENTED_EDGE ( 'NONE', *, *, #50, .F. ) ;
#487 = FACE_BOUND ( 'NONE', #194, .T. ) ;
#488 = FILL_AREA_STYLE ('',( #561 ) ) ;
#489 = VECTOR ( 'NONE', #427, 39.37007874015748100 ) ;
#490 = VERTEX_POINT ( 'NONE', #278 ) ;
#491 = DIRECTION ( 'NONE',  ( -0.0000000000000000000, 1.000000000000000000, -0.0000000000000000000 ) ) ;
#492 = ADVANCED_FACE ( 'NONE', ( #616, #365, #631 ), #328, .F. ) ;
#493 = DIRECTION ( 'NONE',  ( -1.000000000000000000, -0.0000000000000000000, -0.0000000000000000000 ) ) ;
#494 = EDGE_CURVE ( 'NONE', #80, #231, #249, .T. ) ;
#495 = EDGE_CURVE ( 'NONE', #203, #246, #157, .T. ) ;
#496 = FACE_OUTER_BOUND ( 'NONE', #218, .T. ) ;
#497 = AXIS2_PLACEMENT_3D ( 'NONE', #263, #135, #75 ) ;
#498 = ADVANCED_FACE ( 'NONE', ( #394 ), #456, .F. ) ;
#499 =( LENGTH_UNIT ( ) NAMED_UNIT ( * ) SI_UNIT ( $, .METRE. ) );
#500 = EDGE_CURVE ( 'NONE', #186, #388, #122, .T. ) ;
#501 = EDGE_LOOP ( 'NONE', ( #172, #471 ) ) ;
#502 = CARTESIAN_POINT ( 'NONE',  ( 0.1909448818897635800, 4.676369010713220400E-034, 0.7500000000000001100 ) ) ;
#503 = ADVANCED_BREP_SHAPE_REPRESENTATION ( 'small bracket ALU', ( #100, #212 ), #626 ) ;
#504 = CIRCLE ( 'NONE', #436, 0.08267716535433035400 ) ;
#505 = CARTESIAN_POINT ( 'NONE',  ( 2.937500000000000000, -0.1875000000000000300, 0.0000000000000000000 ) ) ;
#506 = CARTESIAN_POINT ( 'NONE',  ( 0.1909448818897640200, -3.249999999999999600, 0.3750000000000000600 ) ) ;
#507 = CIRCLE ( 'NONE', #229, 0.09842519685039379000 ) ;
#508 = VERTEX_POINT ( 'NONE', #505 ) ;
#509 = CYLINDRICAL_SURFACE ( 'NONE', #541, 0.09842519685039379000 ) ;
#510 = ORIENTED_EDGE ( 'NONE', *, *, #443, .F. ) ;
#511 = DIRECTION ( 'NONE',  ( -0.0000000000000000000, 1.000000000000000000, -0.0000000000000000000 ) ) ;
#512 =( CONVERSION_BASED_UNIT ( 'INCH', #336 ) LENGTH_UNIT ( ) NAMED_UNIT ( #461 ) );
#513 = PLANE ( 'NONE',  #273 ) ;
#514 = FACE_OUTER_BOUND ( 'NONE', #21, .T. ) ;
#515 = MECHANICAL_DESIGN_GEOMETRIC_PRESENTATION_REPRESENTATION (  '', ( #459 ), #12 ) ;
#516 = ORIENTED_EDGE ( 'NONE', *, *, #443, .T. ) ;
#517 = DIRECTION ( 'NONE',  ( 0.0000000000000000000, 0.0000000000000000000, 1.000000000000000000 ) ) ;
#518 = CARTESIAN_POINT ( 'NONE',  ( 1.031594070000000100, -0.1875000000000000300, 0.3749999999999998900 ) ) ;
#519 = CARTESIAN_POINT ( 'NONE',  ( 1.031594070000000100, 0.0000000000000000000, 0.4734251968503935300 ) ) ;
#520 =( GEOMETRIC_REPRESENTATION_CONTEXT ( 3 ) GLOBAL_UNCERTAINTY_ASSIGNED_CONTEXT ( ( #198 ) ) GLOBAL_UNIT_ASSIGNED_CONTEXT ( ( #636, #425, #223 ) ) REPRESENTATION_CONTEXT ( 'NONE', 'WORKASPACE' ) );
#521 = DIRECTION ( 'NONE',  ( -0.0000000000000000000, 1.000000000000000000, -0.0000000000000000000 ) ) ;
#522 = DIRECTION ( 'NONE',  ( -0.0000000000000000000, 1.000000000000000000, -0.0000000000000000000 ) ) ;
#523 = ORIENTED_EDGE ( 'NONE', *, *, #242, .F. ) ;
#524 = CARTESIAN_POINT ( 'NONE',  ( 0.3784448818897636600, -0.1875000000000000300, 0.7500000000000001100 ) ) ;
#525 = FACE_OUTER_BOUND ( 'NONE', #401, .T. ) ;
#526 = ORIENTED_EDGE ( 'NONE', *, *, #101, .T. ) ;
#527 = PRESENTATION_STYLE_ASSIGNMENT (( #594 ) ) ;
#528 = FILL_AREA_STYLE ('',( #595 ) ) ;
#529 = CARTESIAN_POINT ( 'NONE',  ( 0.1909448818897640200, -3.249999999999999600, 0.4576771653543306700 ) ) ;
#530 = ORIENTED_EDGE ( 'NONE', *, *, #294, .T. ) ;
#531 = FACE_OUTER_BOUND ( 'NONE', #230, .T. ) ;
#532 = AXIS2_PLACEMENT_3D ( 'NONE', #30, #608, #535 ) ;
#533 = VERTEX_POINT ( 'NONE', #570 ) ;
#534 = DIRECTION ( 'NONE',  ( 0.0000000000000000000, 0.0000000000000000000, 1.000000000000000000 ) ) ;
#535 = DIRECTION ( 'NONE',  ( -1.000000000000000000, 0.0000000000000000000, -0.0000000000000000000 ) ) ;
#536 = APPLICATION_PROTOCOL_DEFINITION ( 'draft international standard', 'automotive_design', 1998, #606 ) ;
#537 = CARTESIAN_POINT ( 'NONE',  ( 0.3784448818897637700, -1.649999999999999900, 0.4576771653543304000 ) ) ;
#538 = DIRECTION ( 'NONE',  ( 0.0000000000000000000, 0.0000000000000000000, 1.000000000000000000 ) ) ;
#539 = ORIENTED_EDGE ( 'NONE', *, *, #395, .T. ) ;
#540 = ORIENTED_EDGE ( 'NONE', *, *, #439, .T. ) ;
#541 = AXIS2_PLACEMENT_3D ( 'NONE', #587, #522, #452 ) ;
#542 = VECTOR ( 'NONE', #168, 39.37007874015748100 ) ;
#543 = CARTESIAN_POINT ( 'NONE',  ( -5.665782421815471500, -3.250000000000000000, 0.7500000000000001100 ) ) ;
#544 = DIRECTION ( 'NONE',  ( -1.000000000000000000, -0.0000000000000000000, -0.0000000000000000000 ) ) ;
#545 = ORIENTED_EDGE ( 'NONE', *, *, #546, .F. ) ;
#546 = EDGE_CURVE ( 'NONE', #490, #339, #62, .T. ) ;
#547 = DIRECTION ( 'NONE',  ( -1.000000000000000000, -0.0000000000000000000, -0.0000000000000000000 ) ) ;
#548 = UNCERTAINTY_MEASURE_WITH_UNIT (LENGTH_MEASURE( 1.000000000000000100E-005 ), #296, 'distance_accuracy_value', 'NONE');
#549 = EDGE_CURVE ( 'NONE', #246, #203, #402, .T. ) ;
#550 = AXIS2_PLACEMENT_3D ( 'NONE', #627, #557, #484 ) ;
#551 = ADVANCED_FACE ( 'NONE', ( #424, #465, #514 ), #45, .F. ) ;
#552 =( NAMED_UNIT ( * ) SI_UNIT ( $, .STERADIAN. ) SOLID_ANGLE_UNIT ( ) );
#553 = ADVANCED_FACE ( 'NONE', ( #531 ), #417, .F. ) ;
#554 = DIRECTION ( 'NONE',  ( 0.0000000000000000000, 0.0000000000000000000, 1.000000000000000000 ) ) ;
#555 = CARTESIAN_POINT ( 'NONE',  ( 0.1909448818897635800, 4.676369010713220400E-034, 0.0000000000000000000 ) ) ;
#556 = CIRCLE ( 'NONE', #52, 0.09842519685039365100 ) ;
#557 = DIRECTION ( 'NONE',  ( 0.0000000000000000000, 1.000000000000000000, 0.0000000000000000000 ) ) ;
#558 =( LENGTH_UNIT ( ) NAMED_UNIT ( * ) SI_UNIT ( $, .METRE. ) );
#559 = COLOUR_RGB ( '',0.7921568627450980000, 0.8196078431372548800, 0.9333333333333333500 ) ;
#560 = ORIENTED_EDGE ( 'NONE', *, *, #13, .T. ) ;
#561 = FILL_AREA_STYLE_COLOUR ( '', #559 ) ;
#562 = AXIS2_PLACEMENT_3D ( 'NONE', #163, #95, #37 ) ;
#563 = ORIENTED_EDGE ( 'NONE', *, *, #101, .F. ) ;
#564 = AXIS2_PLACEMENT_3D ( 'NONE', #312, #245, #179 ) ;
#565 = CARTESIAN_POINT ( 'NONE',  ( 2.622933070000000200, 0.0000000000000000000, 0.3750000000000000600 ) ) ;
#566 = PRESENTATION_STYLE_ASSIGNMENT (( #634 ) ) ;
#567 = AXIS2_PLACEMENT_3D ( 'NONE', #348, #279, #214 ) ;
#568 = ORIENTED_EDGE ( 'NONE', *, *, #189, .F. ) ;
#569 = LINE ( 'NONE', #502, #489 ) ;
#570 = CARTESIAN_POINT ( 'NONE',  ( 1.031594070000000100, -9.642888182262621500E-018, 0.4734251968503935300 ) ) ;
#571 = DIRECTION ( 'NONE',  ( 0.0000000000000000000, 0.0000000000000000000, 1.000000000000000000 ) ) ;
#572 =( NAMED_UNIT ( * ) PLANE_ANGLE_UNIT ( ) SI_UNIT ( $, .RADIAN. ) );
#573 = ORIENTED_EDGE ( 'NONE', *, *, #235, .T. ) ;
#574 = PRESENTATION_STYLE_ASSIGNMENT (( #643 ) ) ;
#575 = FACE_OUTER_BOUND ( 'NONE', #275, .T. ) ;
#576 = VECTOR ( 'NONE', #625, 39.37007874015748100 ) ;
#577 = ORIENTED_EDGE ( 'NONE', *, *, #344, .F. ) ;
#578 = CARTESIAN_POINT ( 'NONE',  ( 2.937500000000000000, 0.0000000000000000000, 0.7500000000000001100 ) ) ;
#579 = DIRECTION ( 'NONE',  ( 0.0000000000000000000, 0.0000000000000000000, 1.000000000000000000 ) ) ;
#580 = CYLINDRICAL_SURFACE ( 'NONE', #479, 0.3750000000000002200 ) ;
#581 = VECTOR ( 'NONE', #329, 39.37007874015748100 ) ;
#582 = VERTEX_POINT ( 'NONE', #156 ) ;
#583 = DIRECTION ( 'NONE',  ( 0.0000000000000000000, 1.000000000000000000, 0.0000000000000000000 ) ) ;
#584 = DIRECTION ( 'NONE',  ( -9.106159978880872500E-017, 1.000000000000000000, 0.0000000000000000000 ) ) ;
#585 = CARTESIAN_POINT ( 'NONE',  ( 0.3784448818897636600, -0.1875000000000000300, 0.0000000000000000000 ) ) ;
#586 = CARTESIAN_POINT ( 'NONE',  ( 2.622933070000000200, 0.0000000000000000000, 0.4734251968503938000 ) ) ;
#587 = CARTESIAN_POINT ( 'NONE',  ( 2.622933070000000200, 0.0000000000000000000, 0.3750000000000000600 ) ) ;
#588 =( GEOMETRIC_REPRESENTATION_CONTEXT ( 3 ) GLOBAL_UNCERTAINTY_ASSIGNED_CONTEXT ( ( #548 ) ) GLOBAL_UNIT_ASSIGNED_CONTEXT ( ( #296, #105, #552 ) ) REPRESENTATION_CONTEXT ( 'NONE', 'WORKASPACE' ) );
#589 = EDGE_LOOP ( 'NONE', ( #628, #220, #434, #466, #317, #568 ) ) ;
#590 = LINE ( 'NONE', #524, #239 ) ;
#591 = VECTOR ( 'NONE', #77, 39.37007874015748100 ) ;
#592 = ORIENTED_EDGE ( 'NONE', *, *, #235, .F. ) ;
#593 = VECTOR ( 'NONE', #347, 39.37007874015748100 ) ;
#594 = SURFACE_STYLE_USAGE ( .BOTH. , #23 ) ;
#595 = FILL_AREA_STYLE_COLOUR ( '', #197 ) ;
#596 = ADVANCED_FACE ( 'NONE', ( #496 ), #580, .T. ) ;
#597 = LINE ( 'NONE', #529, #281 ) ;
#598 = VERTEX_POINT ( 'NONE', #537 ) ;
#599 = EDGE_CURVE ( 'NONE', #298, #127, #451, .T. ) ;
#600 = UNCERTAINTY_MEASURE_WITH_UNIT (LENGTH_MEASURE( 1.000000000000000100E-005 ), #512, 'distance_accuracy_value', 'NONE');
#601 = EDGE_CURVE ( 'NONE', #642, #8, #201, .T. ) ;
#602 = AXIS2_PLACEMENT_3D ( 'NONE', #469, #403, #330 ) ;
#603 = FACE_OUTER_BOUND ( 'NONE', #120, .T. ) ;
#604 = ORIENTED_EDGE ( 'NONE', *, *, #102, .F. ) ;
#605 = DIRECTION ( 'NONE',  ( -1.000000000000000000, -0.0000000000000000000, -0.0000000000000000000 ) ) ;
#606 = APPLICATION_CONTEXT ( 'automotive_design' ) ;
#607 = EDGE_CURVE ( 'NONE', #582, #127, #17, .T. ) ;
#608 = DIRECTION ( 'NONE',  ( 0.0000000000000000000, 0.0000000000000000000, -1.000000000000000000 ) ) ;
#609 = CIRCLE ( 'NONE', #408, 0.08267716535433007600 ) ;
#610 = PRODUCT_CONTEXT ( 'NONE', #103, 'mechanical' ) ;
#611 = CIRCLE ( 'NONE', #215, 0.08267716535433007600 ) ;
#612 = DIRECTION ( 'NONE',  ( 0.0000000000000000000, 1.000000000000000000, 0.0000000000000000000 ) ) ;
#613 = DIRECTION ( 'NONE',  ( -1.000000000000000000, -0.0000000000000000000, -0.0000000000000000000 ) ) ;
#614 =( NAMED_UNIT ( * ) SI_UNIT ( $, .STERADIAN. ) SOLID_ANGLE_UNIT ( ) );
#615 = EDGE_LOOP ( 'NONE', ( #85, #33, #563, #373 ) ) ;
#616 = FACE_BOUND ( 'NONE', #26, .T. ) ;
#617 =( GEOMETRIC_REPRESENTATION_CONTEXT ( 3 ) GLOBAL_UNCERTAINTY_ASSIGNED_CONTEXT ( ( #151 ) ) GLOBAL_UNIT_ASSIGNED_CONTEXT ( ( #349, #158, #614 ) ) REPRESENTATION_CONTEXT ( 'NONE', 'WORKASPACE' ) );
#618 = LINE ( 'NONE', #543, #128 ) ;
#619 = CARTESIAN_POINT ( 'NONE',  ( 0.1909448818897640000, -3.249999999999999600, 0.3750000000000000600 ) ) ;
#620 = ORIENTED_EDGE ( 'NONE', *, *, #338, .T. ) ;
#621 = CARTESIAN_POINT ( 'NONE',  ( 0.1909448818897638000, -1.649999999999999900, 0.3750000000000000600 ) ) ;
#622 = LENGTH_MEASURE_WITH_UNIT ( LENGTH_MEASURE( 0.02539999999999999900 ), #315 );
#623 = STYLED_ITEM ( 'NONE', ( #257 ), #57 ) ;
#624 = CARTESIAN_POINT ( 'NONE',  ( 0.0000000000000000000, 0.0000000000000000000, 0.0000000000000000000 ) ) ;
#625 = DIRECTION ( 'NONE',  ( -1.000000000000000000, -0.0000000000000000000, -0.0000000000000000000 ) ) ;
#626 =( GEOMETRIC_REPRESENTATION_CONTEXT ( 3 ) GLOBAL_UNCERTAINTY_ASSIGNED_CONTEXT ( ( #10 ) ) GLOBAL_UNIT_ASSIGNED_CONTEXT ( ( #123, #572, #364 ) ) REPRESENTATION_CONTEXT ( 'NONE', 'WORKASPACE' ) );
#627 = CARTESIAN_POINT ( 'NONE',  ( 0.3784448818897636600, -0.1875000000000000300, 0.7500000000000001100 ) ) ;
#628 = ORIENTED_EDGE ( 'NONE', *, *, #287, .F. ) ;
#629 = ORIENTED_EDGE ( 'NONE', *, *, #607, .F. ) ;
#630 =( NAMED_UNIT ( * ) PLANE_ANGLE_UNIT ( ) SI_UNIT ( $, .RADIAN. ) );
#631 = FACE_OUTER_BOUND ( 'NONE', #432, .T. ) ;
#632 = DIRECTION ( 'NONE',  ( -1.159652530852687100E-016, 1.000000000000000000, -0.0000000000000000000 ) ) ;
#633 = CYLINDRICAL_SURFACE ( 'NONE', #86, 0.08267716535433061700 ) ;
#634 = SURFACE_STYLE_USAGE ( .BOTH. , #53 ) ;
#635 = VECTOR ( 'NONE', #450, 39.37007874015748100 ) ;
#636 =( CONVERSION_BASED_UNIT ( 'INCH', #166 ) LENGTH_UNIT ( ) NAMED_UNIT ( #460 ) );
#637 = ORIENTED_EDGE ( 'NONE', *, *, #7, .T. ) ;
#638 = CARTESIAN_POINT ( 'NONE',  ( 2.937500000000000000, -0.1875000000000000300, 0.7500000000000001100 ) ) ;
#639 = DIRECTION ( 'NONE',  ( -0.0000000000000000000, -0.0000000000000000000, -1.000000000000000000 ) ) ;
#640 = DIRECTION ( 'NONE',  ( -0.0000000000000000000, 1.000000000000000000, -0.0000000000000000000 ) ) ;
#641 = DIRECTION ( 'NONE',  ( 1.192988228709979300E-016, -1.000000000000000000, 0.0000000000000000000 ) ) ;
#642 = VERTEX_POINT ( 'NONE', #264 ) ;
#643 = SURFACE_STYLE_USAGE ( .BOTH. , #65 ) ;
#644 = LENGTH_MEASURE_WITH_UNIT ( LENGTH_MEASURE( 0.02539999999999999900 ), #367 );
#645 = AXIS2_PLACEMENT_3D ( 'NONE', #518, #447, #375 ) ;
#646 = EDGE_LOOP ( 'NONE', ( #323, #530 ) ) ;
#647 = LINE ( 'NONE', #578, #325 ) ;
ENDSEC;
END-ISO-10303-21;
